<svg xmlns="http://www.w3.org/2000/svg" width="288.668" height="310.536" viewBox="0 0 288.668 310.536">
  <g id="Grupo_55" data-name="Grupo 55" transform="translate(-43 -217.784)">
    <g id="Componente_2_1" data-name="Componente 2 – 1" transform="translate(43 218.284)">
      <path id="Trazado_56" data-name="Trazado 56" d="M304.891,350.532c2.622-36.863-24.108-71.751-60.951-78.552-12.264-2.264-24.885-1.364-37.288-2.662-27.235-2.851-52.135-16.071-78.275-24.233s-57.048-10.46-78.7,6.31c-8.149,6.313-14.312,14.879-19.184,23.963a121.37,121.37,0,0,0-6.805,98.052c4.124,11.169,10.006,21.824,18.27,30.4,9.021,9.358,20.542,15.919,32.334,21.386,33.329,15.454,70.59,23.127,107.148,19.509s72.273-18.9,98.421-44.7c13.71-13.53,25.115-31.052,25.233-50.315" transform="translate(-16.429 -135.55)" fill="#d1d2ff"/>
      <line id="Línea_2" data-name="Línea 2" x2="257.574" transform="translate(14.607 218.092)" fill="none" stroke="#656cbc" stroke-miterlimit="10" stroke-width="1"/>
      <g id="Grupo_41" data-name="Grupo 41" transform="translate(134.761 242.453)">
        <ellipse id="Elipse_7" data-name="Elipse 7" cx="56.883" cy="13.821" rx="56.883" ry="13.821" fill="#656cbc" opacity="0.4"/>
        <g id="Grupo_38" data-name="Grupo 38" transform="translate(69.945 22.044)">
          <path id="Trazado_57" data-name="Trazado 57" d="M253.268,426.934H260.2a1.3,1.3,0,0,0,0-2.607h-6.934a1.3,1.3,0,1,0,0,2.607Z" transform="translate(-251.964 -424.327)" fill="#898de0"/>
        </g>
        <g id="Grupo_39" data-name="Grupo 39" transform="translate(73.975 16.562)">
          <path id="Trazado_58" data-name="Trazado 58" d="M257.906,420.626h5.8a1.3,1.3,0,0,0,0-2.607h-5.8a1.3,1.3,0,0,0,0,2.607Z" transform="translate(-256.602 -418.019)" fill="#898de0"/>
        </g>
        <g id="Grupo_40" data-name="Grupo 40" transform="translate(69.622 12.369)">
          <path id="Trazado_59" data-name="Trazado 59" d="M252.9,415.8h6.289a1.3,1.3,0,1,0,0-2.607H252.9a1.3,1.3,0,0,0,0,2.607Z" transform="translate(-251.593 -413.195)" fill="#898de0"/>
        </g>
      </g>
      <g id="Grupo_45" data-name="Grupo 45" transform="translate(23.257 242.453)">
        <ellipse id="Elipse_8" data-name="Elipse 8" cx="47.061" cy="13.821" rx="47.061" ry="13.821" fill="#656cbc" opacity="0.4"/>
        <g id="Grupo_42" data-name="Grupo 42" transform="translate(57.867 22.044)">
          <path id="Trazado_60" data-name="Trazado 60" d="M110.85,426.934h5.736a1.327,1.327,0,0,0,0-2.607H110.85a1.327,1.327,0,0,0,0,2.607Z" transform="translate(-109.771 -424.327)" fill="#898de0"/>
        </g>
        <g id="Grupo_43" data-name="Grupo 43" transform="translate(61.202 16.562)">
          <path id="Trazado_61" data-name="Trazado 61" d="M114.687,420.626h4.8a1.327,1.327,0,0,0,0-2.607h-4.8a1.327,1.327,0,0,0,0,2.607Z" transform="translate(-113.608 -418.019)" fill="#898de0"/>
        </g>
        <g id="Grupo_44" data-name="Grupo 44" transform="translate(57.6 12.369)">
          <path id="Trazado_62" data-name="Trazado 62" d="M110.543,415.8h5.2a1.327,1.327,0,0,0,0-2.607h-5.2a1.327,1.327,0,0,0,0,2.607Z" transform="translate(-109.464 -413.195)" fill="#898de0"/>
        </g>
      </g>
      <rect id="Rectángulo_3" data-name="Rectángulo 3" width="52.623" height="40.643" rx="8.229" transform="translate(107.077)" fill="none" stroke="#ffbf60" stroke-miterlimit="10" stroke-width="1"/>
      <path id="Trazado_63" data-name="Trazado 63" d="M193,166.76v6.351l-10.5-6.351Z" transform="translate(-38.166 -126.117)" fill="#ffbf60"/>
      <g id="Grupo_54" data-name="Grupo 54" transform="translate(150.33 14.084)">
        <path id="Trazado_64" data-name="Trazado 64" d="M289.873,218.081l8.023,6.334S285.3,254.7,286.8,259.351a9.621,9.621,0,0,1,3.2,5.043s16.255-20.28,19.354-36.3c0,0,1.81-7.422-3.311-15.76l-4.923-6.258s-3.464,5.2-4.528,6.705C295.479,214.358,289.873,218.081,289.873,218.081Z" transform="translate(-202.132 -145.347)" fill="#ffbf60"/>
        <path id="Trazado_65" data-name="Trazado 65" d="M204.222,406.375c-2.866,4.062-8.665,4.47-12.932,7.022a4.26,4.26,0,0,0-1.541,1.371c-.882,1.47.014,3.486,1.456,4.412a10.087,10.087,0,0,0,4.95,1.152,104.444,104.444,0,0,0,16.2.1c1.781-.175,3.775-.576,4.739-2.083a5.89,5.89,0,0,0,.72-2.389,42.1,42.1,0,0,0,.342-8.3,1.02,1.02,0,0,0-.988-1.227,63.034,63.034,0,0,0-11.741-1.052" transform="translate(-189.399 -171.434)" fill="#001d60"/>
        <path id="Trazado_66" data-name="Trazado 66" d="M269.473,406.16c-1.626,4.7-7.084,6.7-10.475,10.336a4.265,4.265,0,0,0-1.1,1.746c-.439,1.656.981,3.344,2.624,3.834a10.09,10.09,0,0,0,5.076-.268,104.383,104.383,0,0,0,15.587-4.4c1.662-.662,3.466-1.6,3.974-3.317a5.887,5.887,0,0,0,.029-2.5,42.127,42.127,0,0,0-1.975-8.064,1.02,1.02,0,0,0-1.291-.9,62.946,62.946,0,0,0-11.57,2.25" transform="translate(-198.355 -171.071)" fill="#001d60"/>
        <path id="Trazado_67" data-name="Trazado 67" d="M230.167,253.192l-10.777,47.6-13.408,83.26s2.194,5.138,15.873,4.121c0,0,14.884-58.878,14.26-75.4,0,0,5.236-9.917,11.614-35.151l5.4-16.727Z" transform="translate(-191.57 -151.514)" fill="#424d99"/>
        <path id="Trazado_68" data-name="Trazado 68" d="M245.622,259.152l2.6,9.05s3.512,44.809,4.96,51.687l13.99,66.982s9.664,3.313,15.612-5.825l-10.276-61.158,4.239-44.447s3.131-19.021-1.958-28.308l-29.171-.508Z" transform="translate(-196.758 -150.655)" fill="#424d99"/>
        <path id="Trazado_69" data-name="Trazado 69" d="M258.557,141.892a13.1,13.1,0,0,0-10.435-5.688c-5.032-.1-9.774,2.827-12.9,6.772s-4.845,8.814-6.116,13.683-2.15,9.855-3.857,14.59a78.09,78.09,0,0,0-2.9,8.144c-1.749,7.3.747,15.3,5.774,20.874s12.339,8.832,19.8,9.678a15.3,15.3,0,0,0,6.325-.35,17.735,17.735,0,0,0,5.262-3.072c6.59-5.039,13.019-11.514,13.987-19.752a31.341,31.341,0,0,0-1.07-10.727A120.441,120.441,0,0,0,258.5,141.66" transform="translate(-193.64 -136.201)" fill="#424d99"/>
        <g id="Head" transform="translate(41.236 3.565)">
          <path id="Head-2" d="M246.65,181.5l.377-13.354c-3.655,2.2-4.371,2.309-6.057,1.875-4.227-1.089-5.572-18.468-2.3-24.563s20.083-8.753,20.93,3.324a26.779,26.779,0,0,1-2.434,13.078l3.031,19.64Z" transform="translate(-236.845 -140.304)" fill="#d4a181"/>
        </g>
        <path id="Trazado_70" data-name="Trazado 70" d="M239.83,141.459s1.918,20.437,23.952,21.612C263.782,163.071,264.74,128.581,239.83,141.459Z" transform="translate(-196 -136.513)" fill="#424d99"/>
        <path id="Trazado_71" data-name="Trazado 71" d="M234.97,222.92l-8.99-8.908-14.6-21.423s-3.9,1.382-5.522,2c0,0,6,26.887,18.431,35.724h11.088Z" transform="translate(-191.554 -143.582)" fill="#ffbf60"/>
        <path id="Trazado_72" data-name="Trazado 72" d="M237.263,226.233c.036,9.641-6.578,22.658-6.578,22.658-3.158,3.169-1.763,4.5-1.763,4.5,14.427,9.478,39.069,3.686,39.069,3.686,15.079-2.4,11.176-8.04,11.176-8.04-11.69-9.473-7.666-39.552-7.666-39.552l10.181,10.222s10.4-3.789,11.587-16.968c0,0-13.092-12.286-22.982-17.089l-12.027-5.065s-5.136,4-7.008,4.218c-1.6.183-8.107-3.482-8.107-3.482s-10.059,2.394-13.72,18.327l-2.419,9.843s-2.711,2.453,8.111,9.655Z" transform="translate(-194.282 -142.011)" fill="#898de0"/>
        <path id="Trazado_73" data-name="Trazado 73" d="M288.2,272.487a57.11,57.11,0,0,1-5.382,6.289c-2.168,2.032-4.706,3.856-7.64,4.324a2.749,2.749,0,0,1-1.516-.087,1.163,1.163,0,0,1-.742-1.212,1.736,1.736,0,0,1,.539-.813,93.225,93.225,0,0,1,9-7.728c-1.291.91-4.64,2.55-6.154,2.1-.647-.19-1.341-.623-1.387-1.3-.056-.816.829-1.334,1.577-1.666a64.066,64.066,0,0,0,6.647-3.424,6.591,6.591,0,0,0,1.862-1.6,12.013,12.013,0,0,1,2.667,3.159A10.832,10.832,0,0,1,288.2,272.487Z" transform="translate(-200.329 -153.37)" fill="#d4a181"/>
        <path id="Trazado_74" data-name="Trazado 74" d="M198.666,186.617a3.771,3.771,0,0,1-1.081-1.662.941.941,0,0,1-.015-.654.8.8,0,0,1,1.128-.236,2.067,2.067,0,0,1,.729,1.058,5.893,5.893,0,0,1,.309.7c-.03.281-.636.249-.686.528" transform="translate(-190.462 -142.449)" fill="#d4a181"/>
        <path id="Trazado_75" data-name="Trazado 75" d="M245.622,181.321,251.4,207.1l9.336-26.514s-4.062,3.25-7.319,3.664C251.358,184.512,248.27,182.729,245.622,181.321Z" transform="translate(-196.758 -142.011)" fill="#ffbf60"/>
        <path id="Trazado_76" data-name="Trazado 76" d="M240.894,183.532l8.156,28.137,1.732-4.459L245,181.432A26.52,26.52,0,0,0,240.894,183.532Z" transform="translate(-196.139 -142.121)" fill="#d1d2ff"/>
        <path id="Trazado_77" data-name="Trazado 77" d="M250.278,211.559h4.774l11.3-28.865-5.005-2.108Z" transform="translate(-197.368 -142.011)" fill="#656cbc"/>
        <g id="Grupo_46" data-name="Grupo 46" transform="translate(39.368 60.429)">
          <path id="Trazado_78" data-name="Trazado 78" d="M236.254,205.946a22.3,22.3,0,0,0-1.269,4.948,19.1,19.1,0,0,0,.9,10.118,13.976,13.976,0,0,0,3.971,5.412c.315.265.773-.188.455-.455a14.136,14.136,0,0,1-4.915-9.934,23.569,23.569,0,0,1,.946-8.318,16.426,16.426,0,0,1,.532-1.6c.155-.384-.468-.551-.621-.171Z" transform="translate(-234.697 -205.731)" fill="#d1d2ff"/>
        </g>
        <g id="Grupo_47" data-name="Grupo 47" transform="translate(32.869 67.342)">
          <path id="Trazado_79" data-name="Trazado 79" d="M227.248,214.179a15.087,15.087,0,0,0,1.188,2.161,18.366,18.366,0,0,0,3.578,4.156,13.927,13.927,0,0,0,3.158,2.029c.374.172.7-.382.325-.555a16.3,16.3,0,0,1-7.334-7.377c-.127-.242-.252-.487-.36-.738-.163-.379-.717-.052-.555.325Z" transform="translate(-227.218 -213.685)" fill="#d1d2ff"/>
        </g>
        <g id="Grupo_48" data-name="Grupo 48" transform="translate(72.261 44.454)">
          <path id="Trazado_80" data-name="Trazado 80" d="M275.455,187.5a16.682,16.682,0,0,0-1.852,4.118,22.172,22.172,0,0,0-.771,10.349,24.544,24.544,0,0,0,2.623,7.557c.195.365.751.041.556-.325a22.806,22.806,0,0,1-2.766-12.49,21.021,21.021,0,0,1,2.055-7.6,11.3,11.3,0,0,1,.711-1.281c.229-.345-.327-.667-.556-.325Z" transform="translate(-272.543 -187.35)" fill="#d1d2ff"/>
        </g>
        <g id="Grupo_49" data-name="Grupo 49" transform="translate(86.682 60.411)">
          <path id="Trazado_81" data-name="Trazado 81" d="M289.531,221.512a12.069,12.069,0,0,0,3.291-1.722,18.272,18.272,0,0,0,5.767-6.719,23.971,23.971,0,0,0,2.215-6.957c.067-.405-.553-.579-.621-.171-.988,5.95-4.129,11.794-9.74,14.5a7.283,7.283,0,0,1-1.084.448c-.395.119-.227.741.171.62Z" transform="translate(-289.135 -205.71)" fill="#d1d2ff"/>
        </g>
        <g id="Grupo_50" data-name="Grupo 50" transform="translate(52.738 118.736)">
          <path id="Trazado_82" data-name="Trazado 82" d="M250.081,273.129l.253,4.16.608,9.987.732,12.024.635,10.443c.1,1.677.095,3.405.309,5.073,0,.023,0,.047,0,.07.025.411.668.414.643,0l-.253-4.16-.608-9.987-.732-12.025-.635-10.443c-.1-1.677-.095-3.405-.309-5.072a.653.653,0,0,1,0-.07c-.025-.412-.668-.415-.643,0Z" transform="translate(-250.08 -272.819)" fill="#d1d2ff"/>
        </g>
        <g id="Grupo_53" data-name="Grupo 53" transform="translate(7.14 33.154)">
          <g id="Grupo_51" data-name="Grupo 51">
            <path id="Trazado_83" data-name="Trazado 83" d="M198.061,178.65l4.052,12.513s.446,1.834,1.56,1.18l6.584-2.32s.885-.184.2-1.608l-4.014-13.207s-.34-.9-1.629-.524l-6.228,2.021S197.4,176.869,198.061,178.65Z" transform="translate(-197.647 -174.38)" fill="#f9f8ff"/>
            <path id="Trazado_84" data-name="Trazado 84" d="M203.187,192.668a.916.916,0,0,1-.355-.073c-.667-.283-.931-1.3-.96-1.414l-4.046-12.493a2,2,0,0,1-.036-1.722,1.093,1.093,0,0,1,.732-.507l6.192-2.011c1.468-.427,1.891.641,1.9.651l4.02,13.221a1.683,1.683,0,0,1,.171,1.448.813.813,0,0,1-.531.433l-6.557,2.312A1.019,1.019,0,0,1,203.187,192.668Zm2.182-17.893a1.905,1.905,0,0,0-.529.083l-6.222,2.018a.681.681,0,0,0-.462.316,1.665,1.665,0,0,0,.074,1.351l0,.008,4.052,12.513c.067.269.316.967.714,1.136a.577.577,0,0,0,.533-.074l6.622-2.337a.4.4,0,0,0,.265-.217c.076-.163.106-.485-.189-1.1L206.2,175.239A.848.848,0,0,0,205.369,174.775Z" transform="translate(-197.615 -174.348)" fill="#d1d2ff"/>
          </g>
          <g id="Grupo_52" data-name="Grupo 52" transform="translate(4.547 6.841)">
            <circle id="Elipse_9" data-name="Elipse 9" cx="1.202" cy="1.202" r="1.202" transform="translate(0.214 0.214)" fill="#adafff"/>
            <path id="Trazado_85" data-name="Trazado 85" d="M204.263,185.051a1.416,1.416,0,1,1,1.416-1.416A1.417,1.417,0,0,1,204.263,185.051Zm0-2.4a.987.987,0,1,0,.987.987A.989.989,0,0,0,204.263,182.647Z" transform="translate(-202.847 -182.219)" fill="#424d99"/>
          </g>
          <path id="Trazado_86" data-name="Trazado 86" d="M198.581,179.467l8.194-2.583-.4-1.284s-.14-1.191-1.727-.677l-6.161,2.008s-.764.409-.25,1.553Z" transform="translate(-197.673 -174.407)" fill="#f1f1e6"/>
          <rect id="Rectángulo_4" data-name="Rectángulo 4" width="2.565" height="1.389" rx="0.695" transform="translate(0.615 3.4) rotate(-18.865)" fill="#d1d2ff"/>
          <circle id="Elipse_10" data-name="Elipse 10" cx="0.599" cy="0.599" r="0.599" transform="translate(1.031 3.187)" fill="#001d60"/>
        </g>
        <path id="Trazado_87" data-name="Trazado 87" d="M198.834,188.007c.646,1.461.912,3.083,1.84,4.383a1.486,1.486,0,0,0,.473.475,1.376,1.376,0,0,0,.679.116,5.167,5.167,0,0,0,4.24-2.474,2.509,2.509,0,0,0,.3-2.3,2.556,2.556,0,0,0-1.849-1.215c-.747-.16-1.525-.166-2.255-.392-.5-.155-1.026-.163-1.5-.367a1.391,1.391,0,0,0-1.962.6A1.28,1.28,0,0,0,198.834,188.007Z" transform="translate(-190.614 -142.726)" fill="#d4a181"/>
      </g>
      <path id="Trazado_88" data-name="Trazado 88" d="M67.541,344.548H61.878v54.518H54.87c-.04-.839-.12-1.679-.114-2.519.05-7.315.165-14.631.162-21.947,0-8.756-.122-17.512-.162-26.267-.029-6.231.05-12.462-.03-18.692-.069-5.362,1.948-9.365,6.9-11.793a2.928,2.928,0,0,0,.992-2.249c.075-7.536.049-15.072.049-22.609,0-10.943.249-21.894-.087-32.826-.239-7.773,5.11-13.321,13.223-13.121,12.891.318,25.794.092,38.693.106A11.311,11.311,0,0,1,126.08,258.7c.08,13.117.019,26.234.02,39.352,0,5.94.039,11.881-.012,17.82a2.153,2.153,0,0,0,1.445,2.281,10.844,10.844,0,0,1,6.438,10.275c.061,23.263.03,46.526.028,69.789a7.278,7.278,0,0,1-.117.835h-6.866V344.557h-5.667v44.87h-6.442V344.466H73.8V389.4H67.541Zm52.732-83.1c.7-6.138-1.5-8.649-7.36-8.653-12.515-.008-25.034.165-37.544-.091-4.69-.1-8.213,3.171-6.73,8.744ZM68.4,316.759h51.924v-8.172H68.4Zm51.883-42.244v-5.071h-51.8v5.071ZM68.416,287.5H120.3v-5.04H68.416Zm51.919,8.046H68.507v4.968h51.829ZM73.928,334.591h40.813v-4.485H73.928Zm47.506-.118c5.864.331,6.03,1.079,5.2-4.3h-5.2Zm-59.547.014h5.448v-4.316H61.887Z" transform="translate(-21.442 -136.625)" fill="#adafff"/>
      <path id="Trazado_89" data-name="Trazado 89" d="M65.437,343.548H59.773v54.518H52.765c-.04-.839-.119-1.679-.113-2.519.05-7.315.165-14.631.162-21.947,0-8.756-.122-17.512-.162-26.267-.029-6.231.05-12.462-.03-18.692-.069-5.362,1.948-9.365,6.9-11.793a2.928,2.928,0,0,0,.992-2.249c.075-7.536.049-15.072.049-22.609,0-10.943.248-21.894-.088-32.826-.238-7.773,5.11-13.321,13.223-13.121,12.892.318,25.8.092,38.694.106A11.309,11.309,0,0,1,123.975,257.7c.08,13.117.02,26.234.021,39.352,0,5.94.038,11.881-.012,17.82a2.153,2.153,0,0,0,1.445,2.281,10.846,10.846,0,0,1,6.438,10.275c.061,23.263.03,46.526.027,69.789a7.233,7.233,0,0,1-.116.835h-6.867V343.557h-5.666v44.87H112.8V343.466H71.7V388.4H65.437Zm52.732-83.1c.7-6.138-1.5-8.649-7.361-8.653-12.515-.008-25.034.165-37.544-.091-4.691-.1-8.213,3.171-6.73,8.744ZM66.3,315.759h51.924v-8.172H66.3Zm51.883-42.244v-5.071h-51.8v5.071ZM66.312,286.5H118.2v-5.04H66.312Zm51.919,8.046H66.4v4.968h51.829ZM71.824,333.591h40.812v-4.485H71.824Zm47.506-.118c2.932.166,5.236.5,5.482-.3.269-.867-.1-1.8-.285-4.008h-5.2Zm-59.546.014h5.448v-4.316H59.783Z" transform="translate(-21.166 -136.494)" fill="none" stroke="#656cbc" stroke-miterlimit="10" stroke-width="0.5"/>
      <g id="Grupo_59" data-name="Grupo 59" transform="translate(-31.462 -119.867)">
        <g id="Grupo_58" data-name="Grupo 58" transform="translate(144.46 125.658)">
          <path id="Trazado_90" data-name="Trazado 90" d="M146.725,152.279l6.495-13.93h-2.137l6.141,11.926a1.247,1.247,0,0,0,2.137,0l8.411-15.6,1.223-2.268-2.262-.3,6.494,15.656.917,2.211c.356.857,1.764,1.376,2.262.295l9.168-19.883,1.314-2.847c.662-1.435-1.471-2.693-2.138-1.248l-9.168,19.882-1.313,2.848,2.262.295-6.494-15.655-.917-2.211a1.257,1.257,0,0,0-2.262-.295l-8.411,15.6-1.223,2.269h2.137L153.219,137.1a1.246,1.246,0,0,0-2.137,0l-6.495,13.93c-.668,1.434,1.465,2.69,2.137,1.248Z" transform="translate(-144.46 -125.658)" fill="#adafff"/>
        </g>
        <path id="Trazado_91" data-name="Trazado 91" d="M144.03,127.191V153.42h41.535" transform="translate(0 0)" fill="none" stroke="#424d99" stroke-miterlimit="10" stroke-width="1"/>
      </g>
    </g>
  </g>
</svg>
