<svg id="Componente_23_1" data-name="Componente 23 – 1" xmlns="http://www.w3.org/2000/svg" xmlns:xlink="http://www.w3.org/1999/xlink" width="388.334" height="397.168" viewBox="0 0 388.334 397.168">
  <defs>
    <clipPath id="clip-path">
      <path id="Trazado_588" data-name="Trazado 588" d="M221.153,296.88H193.774V258.568h32.872l-.454,32.718C226.164,294.391,224.255,296.732,221.153,296.88Z" transform="translate(-193.774 -258.568)" fill="none"/>
    </clipPath>
  </defs>
  <path id="Trazado_554" data-name="Trazado 554" d="M16.088,389.751C12.561,340.16,48.52,293.227,98.083,284.078c16.5-3.045,33.477-1.835,50.163-3.581,36.638-3.835,70.136-21.619,105.3-32.6s76.745-14.071,105.867,8.488c10.962,8.493,19.253,20.016,25.807,32.237,21.467,40.023,24.887,89.3,9.155,131.906-5.549,15.026-13.461,29.359-24.577,40.891-12.135,12.589-27.635,21.415-43.5,28.77-44.836,20.789-94.962,31.112-144.143,26.245S84.931,491.013,49.755,456.3c-18.444-18.2-33.786-41.774-33.945-67.686" transform="translate(-15.81 -120.456)" fill="#d1d2ff"/>
  <line id="Línea_13" data-name="Línea 13" x2="346.504" transform="translate(19.65 273.479)" fill="none" stroke="#656cbc" stroke-miterlimit="10" stroke-width="1"/>
  <g id="Grupo_412" data-name="Grupo 412" transform="translate(146.244 309.939)">
    <ellipse id="Elipse_61" data-name="Elipse 61" cx="99.488" cy="18.593" rx="99.488" ry="18.593" fill="#656cbc" opacity="0.4"/>
    <g id="Grupo_409" data-name="Grupo 409" transform="translate(122.332 29.655)">
      <path id="Trazado_555" data-name="Trazado 555" d="M247.8,431.642h12.127c1.193,0,2.335-.807,2.28-1.754a2.107,2.107,0,0,0-2.28-1.754H247.8c-1.193,0-2.335.806-2.28,1.754a2.109,2.109,0,0,0,2.28,1.754Z" transform="translate(-245.522 -428.134)" fill="#898de0"/>
    </g>
    <g id="Grupo_410" data-name="Grupo 410" transform="translate(129.382 22.28)">
      <path id="Trazado_556" data-name="Trazado 556" d="M253.834,425.334h10.153c1.193,0,2.335-.807,2.28-1.754a2.107,2.107,0,0,0-2.28-1.754H253.834c-1.193,0-2.335.807-2.28,1.754a2.109,2.109,0,0,0,2.28,1.754Z" transform="translate(-251.552 -421.826)" fill="#898de0"/>
    </g>
    <g id="Grupo_411" data-name="Grupo 411" transform="translate(121.768 16.64)">
      <path id="Trazado_557" data-name="Trazado 557" d="M247.322,420.51h11c1.193,0,2.335-.807,2.28-1.754a2.107,2.107,0,0,0-2.28-1.754h-11c-1.193,0-2.335.807-2.28,1.754a2.107,2.107,0,0,0,2.28,1.754Z" transform="translate(-245.04 -417.002)" fill="#898de0"/>
    </g>
  </g>
  <path id="Trazado_558" data-name="Trazado 558" d="M310.217,234.521H191.1a12.53,12.53,0,0,0-12.53,12.53V441.279a12.53,12.53,0,0,0,12.53,12.529H310.217a12.53,12.53,0,0,0,12.53-12.529V247.051A12.53,12.53,0,0,0,310.217,234.521Zm6.221,208.789a5.453,5.453,0,0,1-5.453,5.453H191.37a5.453,5.453,0,0,1-5.453-5.453V245.594a5.453,5.453,0,0,1,5.453-5.453h6.621s3.709.05,3.916,5.82c0,0,.206,3.914,5.357,3.709h33.517s3.816.209,3.848-4.739c0,0-.854-4.79,2.818-4.79h63.539a5.453,5.453,0,0,1,5.453,5.453Z" transform="translate(11.726 -121.296)" fill="#898de0"/>
  <path id="Trazado_559" data-name="Trazado 559" d="M246.382,239.083h63.539a5.453,5.453,0,0,1,5.453,5.453V442.251a5.453,5.453,0,0,1-5.453,5.453H190.306a5.453,5.453,0,0,1-5.453-5.453V244.536a5.453,5.453,0,0,1,5.453-5.453h6.621s3.709.049,3.916,5.819c0,0,.206,3.916,5.357,3.709h33.517s3.816.209,3.848-4.739C243.565,243.872,242.711,239.083,246.382,239.083Z" transform="translate(12.789 -120.524)" fill="#f9f8ff"/>
  <circle id="Elipse_62" data-name="Elipse 62" cx="2.026" cy="2.026" r="2.026" transform="translate(218.715 121.406)" fill="#ffbf60"/>
  <circle id="Elipse_63" data-name="Elipse 63" cx="2.026" cy="2.026" r="2.026" transform="translate(225.495 121.406)" fill="#ffbf60"/>
  <circle id="Elipse_64" data-name="Elipse 64" cx="2.026" cy="2.026" r="2.026" transform="translate(232.275 121.406)" fill="#ffbf60"/>
  <g id="Grupo_427" data-name="Grupo 427" transform="translate(31.616)">
    <rect id="Rectángulo_153" data-name="Rectángulo 153" width="62.786" height="48.493" rx="3.669" transform="translate(0.883 19.265)" fill="#f1f1e6"/>
    <rect id="Rectángulo_154" data-name="Rectángulo 154" width="62.786" height="48.493" rx="3.669" transform="translate(87.198 80.122)" fill="#f1f1e6"/>
    <rect id="Rectángulo_155" data-name="Rectángulo 155" width="62.786" height="48.493" rx="3.669" transform="translate(162.352 0.949)" fill="#f1f1e6"/>
    <g id="Grupo_413" data-name="Grupo 413" transform="translate(0 18.334)">
      <path id="Trazado_560" data-name="Trazado 560" d="M44.611,170.781V160.459c0-1.491-.264-3.243.892-4.4,1.277-1.277,3.536-.891,5.182-.891h5.623a.877.877,0,0,0,0-1.754H51.083c-1.776,0-3.954-.3-5.6.518a4.836,4.836,0,0,0-2.6,3.822,14.858,14.858,0,0,0-.027,1.514v11.512a.877.877,0,0,0,1.754,0Z" transform="translate(-42.851 -153.361)" fill="#ffbf60"/>
    </g>
    <g id="Grupo_414" data-name="Grupo 414" transform="translate(0.006 52.269)">
      <path id="Trazado_561" data-name="Trazado 561" d="M56.306,197c-2.881,0-5.769.06-8.648,0a3.08,3.08,0,0,1-2.9-2.11,5.22,5.22,0,0,1-.145-1.622V183.233a.877.877,0,0,0-1.754,0v10.032a7.474,7.474,0,0,0,.156,1.9,4.833,4.833,0,0,0,2.883,3.246c1.5.6,3.426.339,5,.339h5.41a.877.877,0,0,0,0-1.754Z" transform="translate(-42.856 -182.385)" fill="#ffbf60"/>
    </g>
    <g id="Grupo_415" data-name="Grupo 415" transform="translate(47.895 52.269)">
      <path id="Trazado_562" data-name="Trazado 562" d="M98.713,183.233v10.291a3.491,3.491,0,0,1-.693,2.368,3.22,3.22,0,0,1-2.6,1.1c-1.824.009-3.649,0-5.474,0h-5.28a.877.877,0,0,0,0,1.754h10.7a4.9,4.9,0,0,0,5.1-4.809c.036-1.681,0-3.368,0-5.051v-5.658a.877.877,0,0,0-1.754,0Z" transform="translate(-83.816 -182.385)" fill="#ffbf60"/>
    </g>
    <g id="Grupo_416" data-name="Grupo 416" transform="translate(47.895 18.316)">
      <path id="Trazado_563" data-name="Trazado 563" d="M84.663,155.171c3.6,0,7.207-.023,10.81,0a3.15,3.15,0,0,1,2.861,1.57,4.167,4.167,0,0,1,.379,2.135v11.907a.877.877,0,0,0,1.754,0V158.957a6.814,6.814,0,0,0-.26-2.3,4.833,4.833,0,0,0-3.848-3.185,39.2,39.2,0,0,0-5.46-.057H84.663a.877.877,0,0,0,0,1.754Z" transform="translate(-83.816 -153.345)" fill="#ffbf60"/>
    </g>
    <g id="Grupo_417" data-name="Grupo 417" transform="translate(161.469 0.018)">
      <path id="Trazado_564" data-name="Trazado 564" d="M182.716,155.116V144.794c0-1.491-.264-3.243.891-4.4,1.278-1.277,3.537-.892,5.183-.892h5.623a.877.877,0,0,0,0-1.754h-5.224c-1.777,0-3.955-.3-5.6.519a4.837,4.837,0,0,0-2.6,3.822,14.839,14.839,0,0,0-.026,1.513v11.513a.877.877,0,0,0,1.754,0Z" transform="translate(-180.956 -137.695)" fill="#ffbf60"/>
    </g>
    <g id="Grupo_418" data-name="Grupo 418" transform="translate(161.476 33.954)">
      <path id="Trazado_565" data-name="Trazado 565" d="M194.411,181.331c-2.882,0-5.769.06-8.65,0a3.078,3.078,0,0,1-2.9-2.11,5.225,5.225,0,0,1-.145-1.623v-10.03a.877.877,0,0,0-1.754,0V177.6a7.531,7.531,0,0,0,.154,1.9A4.832,4.832,0,0,0,184,182.746c1.5.6,3.426.339,5,.339h5.41a.877.877,0,0,0,0-1.754Z" transform="translate(-180.961 -166.721)" fill="#ffbf60"/>
    </g>
    <g id="Grupo_419" data-name="Grupo 419" transform="translate(209.364 33.954)">
      <path id="Trazado_566" data-name="Trazado 566" d="M236.818,167.568v10.291a3.5,3.5,0,0,1-.693,2.368,3.223,3.223,0,0,1-2.6,1.1c-1.825.009-3.65,0-5.475,0h-5.28a.877.877,0,0,0,0,1.754h10.7a4.9,4.9,0,0,0,5.1-4.809c.036-1.681,0-3.368,0-5.051v-5.658a.877.877,0,0,0-1.754,0Z" transform="translate(-221.919 -166.721)" fill="#ffbf60"/>
    </g>
    <g id="Grupo_420" data-name="Grupo 420" transform="translate(209.364)">
      <path id="Trazado_567" data-name="Trazado 567" d="M222.767,139.505c3.6,0,7.208-.022,10.81,0a3.154,3.154,0,0,1,2.861,1.571,4.168,4.168,0,0,1,.38,2.135v11.907a.877.877,0,0,0,1.754,0V143.292a6.785,6.785,0,0,0-.261-2.3,4.83,4.83,0,0,0-3.847-3.185,39.205,39.205,0,0,0-5.46-.058h-6.238a.877.877,0,0,0,0,1.754Z" transform="translate(-221.919 -137.68)" fill="#ffbf60"/>
    </g>
    <g id="Grupo_421" data-name="Grupo 421" transform="translate(86.314 79.191)">
      <path id="Trazado_568" data-name="Trazado 568" d="M118.436,222.832v-10.32c0-1.492-.264-3.244.892-4.4,1.277-1.277,3.536-.891,5.182-.891h5.623a.877.877,0,0,0,0-1.754h-5.224c-1.777,0-3.955-.3-5.6.518a4.833,4.833,0,0,0-2.6,3.822,14.531,14.531,0,0,0-.027,1.514v11.512a.877.877,0,0,0,1.754,0Z" transform="translate(-116.676 -205.412)" fill="#ffbf60"/>
    </g>
    <g id="Grupo_422" data-name="Grupo 422" transform="translate(86.321 113.126)">
      <path id="Trazado_569" data-name="Trazado 569" d="M130.131,249.048c-2.881,0-5.769.06-8.65,0a3.08,3.08,0,0,1-2.9-2.112,5.22,5.22,0,0,1-.145-1.622V235.284a.877.877,0,0,0-1.754,0v10.032a7.542,7.542,0,0,0,.154,1.9,4.833,4.833,0,0,0,2.884,3.244c1.5.6,3.426.34,5,.34h5.41a.877.877,0,0,0,0-1.754Z" transform="translate(-116.681 -234.437)" fill="#ffbf60"/>
    </g>
    <g id="Grupo_423" data-name="Grupo 423" transform="translate(134.209 113.126)">
      <path id="Trazado_570" data-name="Trazado 570" d="M172.538,235.284v10.291a3.491,3.491,0,0,1-.693,2.368,3.222,3.222,0,0,1-2.6,1.106c-1.825.008-3.65,0-5.474,0h-5.28a.877.877,0,0,0,0,1.754h10.7a4.9,4.9,0,0,0,5.1-4.809c.036-1.682,0-3.37,0-5.052v-5.658a.877.877,0,0,0-1.754,0Z" transform="translate(-157.64 -234.437)" fill="#ffbf60"/>
    </g>
    <g id="Grupo_424" data-name="Grupo 424" transform="translate(134.209 79.173)">
      <path id="Trazado_571" data-name="Trazado 571" d="M158.488,207.222c3.6,0,7.207-.023,10.81,0a3.147,3.147,0,0,1,2.86,1.57,4.158,4.158,0,0,1,.38,2.136v11.906a.877.877,0,0,0,1.754,0V211.009a6.818,6.818,0,0,0-.26-2.3,4.837,4.837,0,0,0-3.848-3.185,39.2,39.2,0,0,0-5.46-.057h-6.236a.877.877,0,0,0,0,1.754Z" transform="translate(-157.64 -205.396)" fill="#ffbf60"/>
    </g>
    <g id="Grupo_425" data-name="Grupo 425" transform="translate(31.413 68.991)">
      <path id="Trazado_572" data-name="Trazado 572" d="M69.753,197.535v29.371c0,2.308-.306,4.927.9,6.978,1.506,2.551,4,3.085,6.614,3.085h47.421a.88.88,0,0,0,0-1.754H79.435c-1.283,0-2.611.105-3.891-.014a4.708,4.708,0,0,1-4.112-4.8c-.021-.754,0-1.514,0-2.269v-30.6a.84.84,0,1,0-1.679,0Z" transform="translate(-69.718 -196.687)" fill="#ffbf60"/>
    </g>
    <g id="Grupo_426" data-name="Grupo 426" transform="translate(117.837 25.464)">
      <path id="Trazado_573" data-name="Trazado 573" d="M145.345,212.948v-46.11a9.833,9.833,0,0,1,.088-1.846,4.641,4.641,0,0,1,4.582-3.755c5.851-.175,11.732,0,17.583,0h18.862a.879.879,0,0,0,0-1.754c-12.036,0-24.071-.054-36.106,0a6.475,6.475,0,0,0-6.7,6.467c-.048,1.625,0,3.261,0,4.887v42.112a.844.844,0,1,0,1.687,0Z" transform="translate(-143.637 -159.459)" fill="#ffbf60"/>
    </g>
  </g>
  <g id="Grupo_428" data-name="Grupo 428" transform="translate(149.453 128.615)">
    <path id="Trazado_574" data-name="Trazado 574" d="M183.071,303.434H153.7c-2.308,0-4.927.306-6.979-.9-2.551-1.506-3.084-4-3.084-6.614V248.5a.88.88,0,0,1,1.754,0v45.257c0,1.283-.106,2.61.014,3.89a4.705,4.705,0,0,0,4.8,4.112c.755.022,1.515,0,2.271,0h30.6a.84.84,0,1,1,0,1.68Z" transform="translate(-143.637 -247.684)" fill="#ffbf60"/>
  </g>
  <g id="Grupo_429" data-name="Grupo 429" transform="translate(213.213 146.116)">
    <g id="Head">
      <path id="Head-2" d="M205.7,295.423l2.819-13.1c-2.736,1.944-5.489,2.993-6.837,2.752-3.38-.6-4.6-12.709-2.4-17.684s15.233-8.06,16.615,1.363a12.03,12.03,0,0,1-2.537,8.858l5.9,16.2Z" transform="translate(-198.171 -262.652)" fill="#b28b67"/>
    </g>
    <path id="Trazado_575" data-name="Trazado 575" d="M199.377,292.418c1.065-1.391,3.554-4.12,5.182-4.77a12.579,12.579,0,0,1,2.371-.567,24.294,24.294,0,0,0,8.2-3.181,5.912,5.912,0,0,1,1.993-.943,3.319,3.319,0,0,1,2.641.813,6.487,6.487,0,0,1,1.633,2.313,12.667,12.667,0,0,1,1.1,4.166c.029.332.714,1.931.56,2.226-.182.345-1.011-.131-1.381-.007-1.568.525-3.264-.148-4.9.047-.864.1-1.944.049-2.812.118a12.86,12.86,0,0,1-4.027.138c-2.639-.509-5.34.546-7.97,0" transform="translate(-197.967 -259.224)" fill="#424d99"/>
  </g>
  <rect id="Rectángulo_156" data-name="Rectángulo 156" width="58.001" height="5.207" transform="translate(251.946 161.836)" fill="#424d99"/>
  <rect id="Rectángulo_157" data-name="Rectángulo 157" width="106.351" height="5.207" transform="translate(209.334 259.486)" fill="#424d99"/>
  <rect id="Rectángulo_158" data-name="Rectángulo 158" width="106.351" height="5.207" transform="translate(209.334 275.436)" fill="#424d99"/>
  <rect id="Rectángulo_159" data-name="Rectángulo 159" width="106.351" height="5.207" transform="translate(209.334 291.385)" fill="#424d99"/>
  <rect id="Rectángulo_160" data-name="Rectángulo 160" width="106.351" height="5.207" transform="translate(209.334 307.335)" fill="#424d99"/>
  <rect id="Rectángulo_161" data-name="Rectángulo 161" width="36.139" height="5.207" transform="translate(251.946 146.116)" fill="#424d99"/>
  <rect id="Rectángulo_162" data-name="Rectángulo 162" width="107.322" height="60.877" rx="3.91" transform="translate(208.363 189.823)" fill="#f1f1e6"/>
  <g id="Grupo_430" data-name="Grupo 430" transform="translate(219.696 200.626)">
    <path id="Trazado_576" data-name="Trazado 576" d="M206.927,347.051l9.2-19.767H213.1l8.7,16.924a1.766,1.766,0,0,0,3.028,0l11.919-22.134,1.734-3.22-3.206-.419,9.2,22.216,1.3,3.137c.5,1.216,2.5,1.954,3.2.42l12.992-28.214,1.86-4.041c.938-2.037-2.085-3.821-3.028-1.77L247.814,338.4l-1.86,4.04,3.206.42-9.2-22.216-1.3-3.138c-.532-1.284-2.419-1.88-3.206-.419l-11.917,22.134-1.734,3.219h3.028l-8.7-16.923a1.765,1.765,0,0,0-3.029,0l-9.2,19.767c-.947,2.033,2.076,3.817,3.029,1.77Z" transform="translate(-203.716 -309.275)" fill="#adafff"/>
  </g>
  <g id="Grupo_431" data-name="Grupo 431" transform="translate(218.609 196.574)">
    <path id="Trazado_577" data-name="Trazado 577" d="M262.477,349.716H202.786V305.809h1.169v42.737h58.522Z" transform="translate(-202.786 -305.809)" fill="#424d99"/>
  </g>
  <circle id="Elipse_65" data-name="Elipse 65" cx="2.827" cy="2.827" r="2.827" transform="translate(291.705 198.036)" fill="#424d99"/>
  <circle id="Elipse_66" data-name="Elipse 66" cx="2.827" cy="2.827" r="2.827" transform="translate(291.705 216.359)" fill="#656cbc"/>
  <circle id="Elipse_67" data-name="Elipse 67" cx="2.827" cy="2.827" r="2.827" transform="translate(291.705 234.683)" fill="#898de0"/>
  <g id="Grupo_432" data-name="Grupo 432" transform="translate(45.604 21.936)">
    <circle id="Elipse_68" data-name="Elipse 68" cx="10.085" cy="10.085" r="10.085" transform="translate(1.172 1.166)" fill="#f9f8ff"/>
    <path id="Trazado_578" data-name="Trazado 578" d="M66.1,178.949a11.38,11.38,0,0,1-2.123-.2,11.254,11.254,0,1,1,11.4-17.39h0A11.258,11.258,0,0,1,66.1,178.949Zm-.037-20.17a8.913,8.913,0,1,0,7.383,3.895h0A8.916,8.916,0,0,0,66.059,158.779Z" transform="translate(-54.815 -156.441)" fill="#898de0"/>
  </g>
  <g id="Grupo_433" data-name="Grupo 433" transform="translate(60.292 39.658)">
    <rect id="Rectángulo_163" data-name="Rectángulo 163" width="3.236" height="5.426" transform="matrix(0.827, -0.563, 0.563, 0.827, 0.812, 2.634)" fill="#d1d2ff"/>
    <path id="Trazado_579" data-name="Trazado 579" d="M71.089,179.53l-3.711-5.451,3.641-2.48,3.712,5.452ZM69,174.386l2.4,3.518,1.709-1.162-2.4-3.518Z" transform="translate(-67.378 -171.599)" fill="#898de0"/>
  </g>
  <g id="Grupo_434" data-name="Grupo 434" transform="translate(62.051 43.146)">
    <path id="Rectángulo_164" data-name="Rectángulo 164" d="M0,0H6.576a0,0,0,0,1,0,0V16.915a2.812,2.812,0,0,1-2.812,2.812H2.812A2.812,2.812,0,0,1,0,16.915V0A0,0,0,0,1,0,0Z" transform="matrix(0.827, -0.563, 0.563, 0.827, 0.812, 4.513)" fill="#d1d2ff"/>
    <path id="Trazado_580" data-name="Trazado 580" d="M81.671,194.7a3.875,3.875,0,0,1-3.207-1.691l-9.581-14.072,6.4-4.359,9.581,14.071a3.876,3.876,0,0,1-1.022,5.381h0A3.847,3.847,0,0,1,81.671,194.7ZM70.506,179.249l8.923,13.105a2.707,2.707,0,0,0,3.757.712h0a2.706,2.706,0,0,0,.713-3.755l-8.924-13.105Z" transform="translate(-68.882 -174.582)" fill="#898de0"/>
  </g>
  <g id="Grupo_435" data-name="Grupo 435" transform="translate(52.921 25.679)">
    <path id="Trazado_581" data-name="Trazado 581" d="M62.828,163.213a7.06,7.06,0,0,1,1.811,0l-.467-.062a5.821,5.821,0,0,1,1.387.373l-.419-.177a4.8,4.8,0,0,1,1,.58l-.354-.275a4.329,4.329,0,0,1,.709.71L66.221,164a4.279,4.279,0,0,1,.511.863l-.177-.419a3.916,3.916,0,0,1,.267.953l-.063-.465a3.483,3.483,0,0,1,0,.818l.063-.466a3.417,3.417,0,0,1-.083.406,1.754,1.754,0,0,0,3.382.932,5.39,5.39,0,0,0-1.76-5.378,7.237,7.237,0,0,0-5.537-1.541,1.918,1.918,0,0,0-1.239.513,1.752,1.752,0,0,0,0,2.48,1.681,1.681,0,0,0,1.239.514Z" transform="translate(-61.073 -159.643)" fill="#d1d2ff"/>
  </g>
  <g id="Grupo_436" data-name="Grupo 436" transform="translate(57.355 36.153)">
    <path id="Trazado_582" data-name="Trazado 582" d="M66.56,172.109a1.755,1.755,0,0,0,0-3.508,1.755,1.755,0,0,0,0,3.508Z" transform="translate(-64.866 -168.601)" fill="#d1d2ff"/>
  </g>
  <g id="Grupo_438" data-name="Grupo 438" transform="translate(126.776 87.45)">
    <g id="Grupo_437" data-name="Grupo 437">
      <path id="Trazado_583" data-name="Trazado 583" d="M171.616,246.312H124.242V212.476h.928v32.935h46.447Z" transform="translate(-124.242 -212.476)" fill="#424d99"/>
    </g>
    <rect id="Rectángulo_165" data-name="Rectángulo 165" width="3.62" height="26.361" transform="translate(4.42 5.035)" fill="#898de0"/>
    <rect id="Rectángulo_166" data-name="Rectángulo 166" width="3.62" height="21.388" transform="translate(19.056 10.008)" fill="#898de0"/>
    <rect id="Rectángulo_167" data-name="Rectángulo 167" width="3.62" height="4.701" transform="translate(33.091 26.694)" fill="#898de0"/>
    <rect id="Rectángulo_168" data-name="Rectángulo 168" width="3.62" height="14.477" transform="translate(11.401 16.918)" fill="#adafff"/>
    <rect id="Rectángulo_169" data-name="Rectángulo 169" width="3.62" height="3.007" transform="translate(40.077 28.388)" fill="#adafff"/>
    <rect id="Rectángulo_170" data-name="Rectángulo 170" width="3.62" height="30.53" transform="translate(26.266 0.865)" fill="#adafff"/>
  </g>
  <g id="Grupo_442" data-name="Grupo 442" transform="translate(212.298 3.842)">
    <g id="Grupo_439" data-name="Grupo 439" transform="translate(0 2.037)">
      <rect id="Rectángulo_171" data-name="Rectángulo 171" width="24.958" height="37.464" rx="2.344" transform="translate(0.585 0.585)" fill="#f9f8ff"/>
      <path id="Trazado_584" data-name="Trazado 584" d="M220.191,181.341H200.713a3.329,3.329,0,0,1-3.325-3.325V146.033a3.329,3.329,0,0,1,3.325-3.325h19.477a3.328,3.328,0,0,1,3.324,3.325v31.983A3.328,3.328,0,0,1,220.191,181.341Zm-19.477-37.464a2.158,2.158,0,0,0-2.156,2.156v31.983a2.158,2.158,0,0,0,2.156,2.156h19.477a2.158,2.158,0,0,0,2.155-2.156V146.033a2.158,2.158,0,0,0-2.155-2.156Z" transform="translate(-197.388 -142.708)" fill="#898de0"/>
    </g>
    <g id="Grupo_440" data-name="Grupo 440" transform="translate(3.14 4.141)">
      <rect id="Rectángulo_172" data-name="Rectángulo 172" width="18.952" height="32.125" transform="translate(0.584 0.584)" fill="#f9f8ff"/>
      <path id="Trazado_585" data-name="Trazado 585" d="M220.2,177.8H200.074V144.508H220.2Zm-18.952-1.169h17.783V145.677H201.243Z" transform="translate(-200.074 -144.508)" fill="#d1d2ff"/>
    </g>
    <g id="Grupo_441" data-name="Grupo 441" transform="translate(5.382)">
      <rect id="Rectángulo_173" data-name="Rectángulo 173" width="14.276" height="4.141" rx="1.771" transform="translate(0.585 0.584)" fill="#f9f8ff"/>
      <path id="Trazado_586" data-name="Trazado 586" d="M214.781,146.276H204.646a2.655,2.655,0,0,1,0-5.31h10.134a2.655,2.655,0,1,1,0,5.31Zm-10.134-4.141a1.486,1.486,0,0,0,0,2.972h10.134a1.486,1.486,0,1,0,0-2.972Z" transform="translate(-201.991 -140.966)" fill="#898de0"/>
    </g>
    <rect id="Rectángulo_174" data-name="Rectángulo 174" width="10.337" height="0.942" transform="translate(5.967 9.38)" fill="#424d99"/>
    <rect id="Rectángulo_175" data-name="Rectángulo 175" width="14.337" height="0.942" transform="translate(5.967 12.366)" fill="#424d99"/>
    <rect id="Rectángulo_176" data-name="Rectángulo 176" width="14.337" height="0.942" transform="translate(5.967 15.037)" fill="#424d99"/>
    <rect id="Rectángulo_177" data-name="Rectángulo 177" width="14.337" height="0.942" transform="translate(5.967 17.708)" fill="#424d99"/>
    <rect id="Rectángulo_178" data-name="Rectángulo 178" width="14.337" height="0.942" transform="translate(5.967 20.38)" fill="#424d99"/>
    <rect id="Rectángulo_179" data-name="Rectángulo 179" width="14.337" height="0.942" transform="translate(5.967 23.051)" fill="#424d99"/>
    <rect id="Rectángulo_180" data-name="Rectángulo 180" width="14.337" height="0.942" transform="translate(5.967 25.723)" fill="#424d99"/>
    <rect id="Rectángulo_181" data-name="Rectángulo 181" width="14.337" height="0.942" transform="translate(5.967 28.394)" fill="#424d99"/>
  </g>
  <g id="Grupo_445" data-name="Grupo 445" transform="translate(208.072 141.341)">
    <g id="Grupo_444" data-name="Grupo 444" clip-path="url(#clip-path)">
      <g id="Grupo_443" data-name="Grupo 443" transform="translate(3.537 3.965)">
        <path id="Trazado_587" data-name="Trazado 587" d="M212.555,279.948c-.762-1.03-.242-3.344.471-4.822a8.45,8.45,0,0,0,1.262-3.342,1.763,1.763,0,0,0-3.505-.277s.046,2.135-.7,2.535c0,0-.944.313-.367-3.179.213-1.291-1.063-2.552-2.412-2.748-1.978-.286-3.622,1.391-5.516,2a4.208,4.208,0,0,1-4.221-.829,2.654,2.654,0,0,1,.139-3.875c.518-.385,1.3-.3,1.809-.7,3.7-2.894,7.448-2.856,11.378-2.707a4.91,4.91,0,0,1,4.02,2.226,4.044,4.044,0,0,1,1.024,2.441c.054,2.046,1.563,3.972,1.005,6.207a4,4,0,0,0,.037,3,2.685,2.685,0,0,0,2.554,1.3,5.961,5.961,0,0,0,1.686-.762c1.792-.924,4.479-.6,5.271,1.2.752,1.706.137,3.036,1.785,4.217a6.883,6.883,0,0,1,2.686,5,20.461,20.461,0,0,1-.63,6.028,17.3,17.3,0,0,0-.465,6.034c.25,1.619.91,3.406-.006,4.787a4.054,4.054,0,0,1-2.385,1.486,9.481,9.481,0,0,1-8.2-1.783,10.346,10.346,0,0,1-3.764-7.313,32.437,32.437,0,0,0-.194-3.682c-.292-1.57-1.223-2.036-2.166-3.139a3.528,3.528,0,0,1-.441-2.949C213.04,284.393,213.9,281.766,212.555,279.948Z" transform="translate(-196.799 -261.959)" fill="#767586"/>
      </g>
    </g>
  </g>
  <g id="Grupo_446" data-name="Grupo 446" transform="translate(207.779 137.381)">
    <path id="Trazado_589" data-name="Trazado 589" d="M222.578,298.047H197.925a4.407,4.407,0,0,1-4.4-4.4V259.583a4.407,4.407,0,0,1,4.4-4.4h24.653a4.407,4.407,0,0,1,4.4,4.4v34.061A4.407,4.407,0,0,1,222.578,298.047Zm-24.653-41.7a3.237,3.237,0,0,0-3.233,3.233v34.061a3.237,3.237,0,0,0,3.233,3.234h24.653a3.237,3.237,0,0,0,3.233-3.234V259.583a3.237,3.237,0,0,0-3.233-3.233Z" transform="translate(-193.523 -255.181)" fill="#ffbf60"/>
  </g>
</svg>
