<svg id="Componente_19_1" data-name="Componente 19 – 1" xmlns="http://www.w3.org/2000/svg" width="388.214" height="402.077" viewBox="0 0 388.214 402.077">
  <g id="Grupo_327" data-name="Grupo 327" transform="translate(76.268 98.247)">
    <rect id="Rectángulo_103" data-name="Rectángulo 103" width="22.466" height="18.698" rx="2.078" transform="translate(23.147 21.957) rotate(0.744)" fill="#d1d2ff"/>
    <circle id="Elipse_50" data-name="Elipse 50" cx="2.055" cy="2.055" r="2.055" transform="translate(26.156 25.053)" fill="#ffbf60"/>
    <g id="Grupo_324" data-name="Grupo 324" transform="translate(8.525 8.629)">
      <path id="Trazado_465" data-name="Trazado 465" d="M93.128,240.667a9.218,9.218,0,0,1,11.121-11.827,1.886,1.886,0,0,0,2.059-1.668,1.92,1.92,0,0,0-1.668-2.059,12.933,12.933,0,0,0-14.928,17.1,1.887,1.887,0,0,0,2.479.936,1.915,1.915,0,0,0,.936-2.479Z" transform="translate(-88.975 -224.814)" fill="#ffbf60"/>
    </g>
    <g id="Grupo_325" data-name="Grupo 325" transform="translate(16.007 15.445)">
      <path id="Trazado_466" data-name="Trazado 466" d="M99.3,240.77c-.161-.472.037.235-.016-.046-.026-.129-.063-.256-.088-.385-.05-.258-.077-.518-.105-.781-.051-.5-.023.36,0-.144,0-.105.006-.21.012-.316a7.082,7.082,0,0,1,.094-.783c.012-.065.148-.533.026-.15.033-.1.057-.2.089-.3a7.074,7.074,0,0,1,.281-.736c.026-.056.271-.489.06-.14.054-.09.105-.181.161-.27a6.377,6.377,0,0,1,.508-.7c.056-.067.309-.285.057-.068.106-.091.2-.194.309-.286.213-.186.443-.344.669-.513s-.381.2.077-.041c.125-.064.248-.132.375-.193.256-.122.52-.212.782-.316s-.42.089.085-.022c.138-.029.275-.062.414-.088.278-.051.555-.069.836-.1.2-.023-.237-.022.1,0,.14.009.281.012.421.025a7.113,7.113,0,0,1,.915.15,1.878,1.878,0,0,0,2.059-1.668,1.93,1.93,0,0,0-1.668-2.059,8.631,8.631,0,0,0-9.866,11.477,1.88,1.88,0,0,0,2.479.935,1.924,1.924,0,0,0,.936-2.479Z" transform="translate(-95.376 -230.645)" fill="#ffbf60"/>
    </g>
    <g id="Grupo_326" data-name="Grupo 326">
      <path id="Trazado_467" data-name="Trazado 467" d="M86.106,241.928a15.447,15.447,0,0,1,3.55-15.063c3.165-3.391,8.873-6.918,13.68-5.352,2.29.746,3.622-2.757,1.324-3.506-6.184-2.015-13.178,1.565-17.422,6a19.045,19.045,0,0,0-4.834,18.5,1.94,1.94,0,0,0,2.141,1.562,1.885,1.885,0,0,0,1.562-2.141Z" transform="translate(-81.681 -217.431)" fill="#ffbf60"/>
    </g>
  </g>
  <path id="Trazado_468" data-name="Trazado 468" d="M404.365,389.7c3.526-49.576-32.422-96.494-81.969-105.64-16.493-3.044-33.467-1.834-50.147-3.58-36.627-3.834-70.114-21.613-105.268-32.589s-76.72-14.067-105.833,8.486c-10.959,8.49-19.247,20.01-25.8,32.227A163.224,163.224,0,0,0,26.2,420.473c5.546,15.022,13.457,29.35,24.57,40.878C62.9,473.936,78.392,482.759,94.25,490.112c44.822,20.783,94.933,31.1,144.1,26.237s97.2-25.414,132.361-60.117c18.438-18.2,33.775-41.761,33.934-67.665" transform="translate(-16.429 -115.462)" fill="#d1d2ff"/>
  <line id="Línea_9" data-name="Línea 9" x2="346.397" transform="translate(19.644 278.427)" fill="none" stroke="#656cbc" stroke-miterlimit="10" stroke-width="1"/>
  <g id="Grupo_331" data-name="Grupo 331" transform="translate(56.061 318.382)">
    <ellipse id="Elipse_51" data-name="Elipse 51" cx="75.796" cy="18.587" rx="75.796" ry="18.587" fill="#656cbc" opacity="0.4"/>
    <g id="Grupo_328" data-name="Grupo 328" transform="translate(93.2 29.646)">
      <path id="Trazado_469" data-name="Trazado 469" d="M145.87,434.641h9.238a1.753,1.753,0,0,0,0-3.506H145.87a1.753,1.753,0,0,0,0,3.506Z" transform="translate(-144.132 -431.135)" fill="#898de0"/>
    </g>
    <g id="Grupo_329" data-name="Grupo 329" transform="translate(98.571 22.273)">
      <path id="Trazado_470" data-name="Trazado 470" d="M150.466,428.333H158.2a1.753,1.753,0,0,0,0-3.506h-7.734a1.753,1.753,0,0,0,0,3.506Z" transform="translate(-148.727 -424.827)" fill="#898de0"/>
    </g>
    <g id="Grupo_330" data-name="Grupo 330" transform="translate(92.77 16.635)">
      <path id="Trazado_471" data-name="Trazado 471" d="M145.5,423.509h8.379a1.753,1.753,0,0,0,0-3.506H145.5a1.753,1.753,0,0,0,0,3.506Z" transform="translate(-143.764 -420.003)" fill="#898de0"/>
    </g>
  </g>
  <g id="Grupo_335" data-name="Grupo 335" transform="translate(68.13)">
    <path id="Trazado_478" data-name="Trazado 478" d="M122.888,411.39a25.872,25.872,0,0,1-1.036,6.242,10.311,10.311,0,0,0-.734,4.034c.249,2.128,2.072,3.778,4.053,4.6a36.682,36.682,0,0,0,6.247,1.47c4.551,1.006,8.726,3.314,13.256,4.415a2.557,2.557,0,0,0,1.666.006,2.179,2.179,0,0,0,1.019-1.37c.8-2.453-.2-5.206-1.889-7.159a23.653,23.653,0,0,0-6.2-4.575,20.866,20.866,0,0,1-6.092-4.7,10.766,10.766,0,0,1-1.634-2.9,1.84,1.84,0,0,0-.573-.946,1.656,1.656,0,0,0-.75-.214,32.522,32.522,0,0,0-6.033-.12l.532,1.247" transform="translate(-66.89 -86.661)" fill="#001d60"/>
    <g id="Head" transform="translate(58.99 4.036)">
      <path id="Head-2" d="M144.088,194.859l1.359-18.687c4.789,3.589,5.773,3.84,8.186,3.471,6.051-.922,10.383-24.982,6.681-33.95s-26.788-15.05-29.674,1.683a37.531,37.531,0,0,0,1.55,18.592l-7,26.978Z" transform="translate(-125.188 -136.828)" fill="#b28b67"/>
    </g>
    <path id="Trazado_479" data-name="Trazado 479" d="M150.081,151.855c-.424-2.68,2.114-5.3,4.8-5.7,3.932-.594,7.2,2.887,10.969,4.159,2.86.965,6.331.483,8.394-1.722s2.11-6.192-.277-8.04c-1.03-.8-2.589-.622-3.6-1.445-7.362-6.005-14.81-5.928-22.628-5.619-3.074.123-5.615,1.309-7.994,4.62a8.579,8.579,0,0,0-2.036,5.066c-.106,4.247-3.11,8.244-2,12.883.473,1.98,1,4.5-.077,6.226a5.274,5.274,0,0,1-5.077,2.7A11.67,11.67,0,0,1,127.2,163.4c-3.564-1.916-8.908-1.235-10.482,2.492-1.221,2.9-.179,7.14-2.965,8.59a5.686,5.686,0,0,1-3.265.317c-3.8-.429-7.6-1.338-11.4-.948s-7.766,2.465-8.972,6.093c-.894,2.694-.166,5.852-1.6,8.3-1.083,1.846-3.141,2.836-4.865,4.1a16.073,16.073,0,0,0-6.078,15.822c.805,3.9,4.239,7.922,8.1,6.947,1.971-.5,3.4-2.149,4.683-3.729,4.326-5.345,7.472-7.641,13.065-11.641,4.634-3.315,7.291-3.928,11.417-5.2,3.813-1.179,4.809-8.307,8.7-7.4s8,6.243,10.78,3.376c4.464-4.61,2.405-16.616,6.119-21.85,1.516-2.138,3.01-5.339,3.072-7.961.06-2.487-2.459-4.446-2.507-6.933a3.756,3.756,0,0,1,2.726-3.6,3.655,3.655,0,0,1,4.245,3.02s-.092,4.43,1.385,5.261C149.35,158.453,151.226,159.1,150.081,151.855Z" transform="translate(-74.288 -133.375)" fill="#767586"/>
    <path id="Trazado_480" data-name="Trazado 480" d="M89.215,416.052a14.639,14.639,0,0,0-.43,13.118c1.875,3.978,5.435,6.862,8.927,9.534,2.6,1.987,5.312,3.981,8.476,4.813a3.688,3.688,0,0,0,2.367.015c1.438-.611,1.759-2.542,1.434-4.07a16.156,16.156,0,0,0-1.584-3.937,87.561,87.561,0,0,0-9.733-15.59,14.876,14.876,0,0,0-3.76-3.533,6.115,6.115,0,0,0-4.971-.748" transform="translate(-72.571 -85.762)" fill="#001d60"/>
    <path id="Trazado_481" data-name="Trazado 481" d="M143.29,317.248c3.078,8.895,2.762,18.582,1.839,27.948-.756,7.674-1.9,15.306-3.037,22.933-2.955,19.769-7.459,39.7-10.414,59.472-3.873,1.441-5.133,2.341-8.877.2.1-6.8-1.528-13.812-1.424-20.61.325-21.11.659-42.331,4.4-63.108a24.036,24.036,0,0,0,.6-5.917,22.533,22.533,0,0,0-1.133-5l-1.966-6.393a2.825,2.825,0,0,1-.185-1.32,2.756,2.756,0,0,1,1.293-1.573,39.949,39.949,0,0,1,16.9-6.89" transform="translate(-66.842 -102.378)" fill="#b28b67"/>
    <path id="Trazado_482" data-name="Trazado 482" d="M118.268,324.913c2.834,16.018-2.642,32.175-7.206,47.788a436.651,436.651,0,0,0-13.454,61.986c-5.391,4.375-4.634-2-8.649-2.926,1.512-17.889-.125-35.973,1.387-53.862.688-8.137,1.393-16.361,3.959-24.114,3.172-9.59,7.376-19.088,7.046-29.183-.021-.61,1.784-.845,2.2-1.3a2.184,2.184,0,0,1,1.286-.541,28.55,28.55,0,0,1,11.641.4c.281.069.611.194.662.479s-.512.424-.484.137" transform="translate(-72.314 -101.472)" fill="#b28b67"/>
    <path id="Trazado_483" data-name="Trazado 483" d="M105,246.207a116.244,116.244,0,0,0-9.93,14.9c-5.652,10.729-7.815,23.021-7.995,35.146s1.536,24.19,3.249,36.195a9.149,9.149,0,0,0,1.331,4.223,7.939,7.939,0,0,0,3.483,2.383c11.914,4.984,25.5,1.848,37.989-1.427,5.118-1.342,10.283-2.716,14.97-5.171a8.576,8.576,0,0,0,3.557-2.912c1.147-1.906.853-4.313.522-6.514l-5.35-35.6c-1.685-11.22-3.421-22.61-8.144-32.925a8.173,8.173,0,0,0-1.5-2.429,8.415,8.415,0,0,0-3.288-1.773,98.884,98.884,0,0,0-28.035-5.478" transform="translate(-72.634 -114.559)" fill="#ffbf60"/>
    <path id="Trazado_484" data-name="Trazado 484" d="M102.849,267.44l12,4.363c1.6.583,3.323,1.253,4.247,2.688a5.4,5.4,0,0,1,.766,2.57,8.448,8.448,0,0,1-10.784,8.69,1.7,1.7,0,0,1-.685-.33c-.8-.724.064-1.966.327-3.009a3.666,3.666,0,0,0-1.2-3.343,23.249,23.249,0,0,0-3-2.185,13.453,13.453,0,0,1-3.854-4.293,5.224,5.224,0,0,1-.829-2.8,2.4,2.4,0,0,1,1.631-2.229" transform="translate(-70.478 -110.742)" fill="#b28b67"/>
    <path id="Trazado_485" data-name="Trazado 485" d="M133.476,179.3a15.986,15.986,0,0,0,16.261,5.92,11.078,11.078,0,0,1,3.9-.508,8.345,8.345,0,0,1,4.008,2.369,196.412,196.412,0,0,0,37.483,26.282c13.641,7.311,28.893,13.113,44.326,11.959.944-.07,2.052-.1,2.65.637a2.93,2.93,0,0,1,.4,2.026l-.272,5.463a3.349,3.349,0,0,1-.671,2.244,4.344,4.344,0,0,1-3.346,1.292c-10.113-2.047-19.78-1.5-30.066-2.32-8.555-.68-15.475-2.61-24.04-3.146s-19.171-4.5-25.321-10.482a31.836,31.836,0,0,1-5.22,7.582,15.61,15.61,0,0,0-2.465,3.014,13.392,13.392,0,0,0-1.183,4.8,102.077,102.077,0,0,1-6.586,25.31,4.525,4.525,0,0,1-1.67,2.393,4.63,4.63,0,0,1-3.3.085l-27.728-6.2a6.977,6.977,0,0,1-3.653-1.608c-1.777-1.85-.359-4.743-.268-7.306.445-12.54,2.764-21.891,2.809-32.583A151.623,151.623,0,0,0,94.637,227.01a7.161,7.161,0,0,0-2.159,2.352,6.26,6.26,0,0,0-.4,3.151,42.451,42.451,0,0,0,2.767,10.91c4.013,11.445,9.13,24.4,13.142,35.847a4.283,4.283,0,0,1-.748,4.624c-1.587,1.786-2.9,3.053-4.74,1.529-9.819-8.133-16.738-23.575-22.039-35.171-3-6.57-6.125-14.921-5.7-22.132.428-7.327,5.245-14.957,10.268-20.307,5.65-6.019,12.6-12.919,18.252-18.938,3.232-3.442,7.525-4.494,11.549-6.963s8.952-3.84,13.527-2.671c1.723.439,3.927-1.812,5.123.062" transform="translate(-74.718 -125.749)" fill="#424d99"/>
    <path id="Trazado_486" data-name="Trazado 486" d="M217.584,219.538a42.527,42.527,0,0,1,15.778,1.019,1.734,1.734,0,0,1,1.509,1.366,1.607,1.607,0,0,1-.759,1.56,2.391,2.391,0,0,1-1.462.131c.6.458,1.287.683,1.9,1.115a2.88,2.88,0,0,1,1.253,2.11,2.794,2.794,0,0,1-.988,2.3,3.923,3.923,0,0,1-1.967.712,25.918,25.918,0,0,1-13.9-1.809,2.732,2.732,0,0,1-1.337-.963,4.675,4.675,0,0,1-.54-2.256,23.8,23.8,0,0,1,.178-4.463s.042-.671.337-.82" transform="translate(-50.692 -118.887)" fill="#b28b67"/>
    <g id="Grupo_334" data-name="Grupo 334" transform="translate(73.694 70.256)">
      <path id="Trazado_487" data-name="Trazado 487" d="M144.921,194.122l2.3,11.021c.77,3.688,1.771,7.587.436,11.266-1.91,5.269-7.095,8.563-9.822,13.363a.511.511,0,0,0,.882.515c2.847-5.012,8.289-8.414,10.076-14.053,1.047-3.3.368-6.769-.317-10.068q-1.278-6.159-2.574-12.317c-.134-.643-1.121-.371-.986.272Z" transform="translate(-137.768 -193.483)" fill="#d1d2ff"/>
    </g>
  </g>
  <path id="Trazado_488" data-name="Trazado 488" d="M101.732,236.736c13.076,3.131,26.254,5.018,39.292,8.278a2.548,2.548,0,0,1,1.3.605,2.08,2.08,0,0,1,.417,1.262,33.516,33.516,0,0,1-2.493,16.006,2.642,2.642,0,0,1-.775,1.164,3.056,3.056,0,0,1-1.542.449c-6.327.614-12.655-.867-18.774-2.462q-8.259-2.151-16.42-4.611c-1.346-.406-2.81-.9-3.5-2.035-.86-1.408-.168-3.144.4-4.672a27.007,27.007,0,0,0,1.363-13.588S100.935,236.544,101.732,236.736Z" transform="translate(-2.518 -115.932)" fill="#898de0"/>
  <g id="Grupo_356" data-name="Grupo 356" transform="translate(34.101 211.237)">
    <g id="Grupo_337" data-name="Grupo 337" transform="translate(0)">
      <g id="Grupo_336" data-name="Grupo 336">
        <rect id="Rectángulo_104" data-name="Rectángulo 104" width="35.061" height="30.579" transform="translate(0 33.64) rotate(-73.631)" fill="none"/>
      </g>
      <rect id="Rectángulo_105" data-name="Rectángulo 105" width="3.506" height="5.676" transform="translate(26.028 25.376) rotate(-73.631)" fill="#797fc4"/>
      <rect id="Rectángulo_106" data-name="Rectángulo 106" width="3.506" height="5.676" transform="translate(16.26 22.507) rotate(-73.631)" fill="#797fc4"/>
      <rect id="Rectángulo_107" data-name="Rectángulo 107" width="3.506" height="5.676" transform="translate(6.525 19.647) rotate(-73.631)" fill="#797fc4"/>
    </g>
    <g id="Grupo_339" data-name="Grupo 339" transform="translate(29.34 8.618)">
      <g id="Grupo_338" data-name="Grupo 338" transform="translate(0 0)">
        <rect id="Rectángulo_108" data-name="Rectángulo 108" width="35.061" height="30.579" transform="matrix(0.282, -0.959, 0.959, 0.282, 0, 33.64)" fill="none"/>
      </g>
      <rect id="Rectángulo_109" data-name="Rectángulo 109" width="3.506" height="5.676" transform="translate(26.028 25.376) rotate(-73.631)" fill="#797fc4"/>
      <rect id="Rectángulo_110" data-name="Rectángulo 110" width="3.506" height="5.676" transform="translate(16.261 22.507) rotate(-73.631)" fill="#797fc4"/>
      <rect id="Rectángulo_111" data-name="Rectángulo 111" width="3.506" height="5.676" transform="translate(6.525 19.647) rotate(-73.631)" fill="#797fc4"/>
    </g>
    <g id="Grupo_341" data-name="Grupo 341" transform="translate(58.68 17.236)">
      <g id="Grupo_340" data-name="Grupo 340" transform="translate(0)">
        <rect id="Rectángulo_112" data-name="Rectángulo 112" width="35.061" height="30.579" transform="translate(0 33.64) rotate(-73.631)" fill="none"/>
      </g>
      <rect id="Rectángulo_113" data-name="Rectángulo 113" width="3.506" height="5.676" transform="translate(26.028 25.376) rotate(-73.631)" fill="#797fc4"/>
      <rect id="Rectángulo_114" data-name="Rectángulo 114" width="3.506" height="5.676" transform="translate(16.26 22.507) rotate(-73.631)" fill="#797fc4"/>
      <rect id="Rectángulo_115" data-name="Rectángulo 115" width="3.506" height="5.676" transform="translate(6.525 19.647) rotate(-73.631)" fill="#797fc4"/>
    </g>
    <g id="Grupo_343" data-name="Grupo 343" transform="translate(88.02 25.854)">
      <g id="Grupo_342" data-name="Grupo 342" transform="translate(0 0)">
        <rect id="Rectángulo_116" data-name="Rectángulo 116" width="35.061" height="30.579" transform="matrix(0.282, -0.959, 0.959, 0.282, 0, 33.64)" fill="none"/>
      </g>
      <rect id="Rectángulo_117" data-name="Rectángulo 117" width="3.506" height="5.676" transform="translate(26.028 25.376) rotate(-73.631)" fill="#797fc4"/>
      <rect id="Rectángulo_118" data-name="Rectángulo 118" width="3.506" height="5.676" transform="translate(16.261 22.507) rotate(-73.631)" fill="#797fc4"/>
      <rect id="Rectángulo_119" data-name="Rectángulo 119" width="3.506" height="5.676" transform="translate(6.525 19.647) rotate(-73.631)" fill="#797fc4"/>
    </g>
    <g id="Grupo_345" data-name="Grupo 345" transform="translate(117.36 34.472)">
      <g id="Grupo_344" data-name="Grupo 344" transform="translate(0)">
        <rect id="Rectángulo_120" data-name="Rectángulo 120" width="35.061" height="30.579" transform="translate(0 33.64) rotate(-73.631)" fill="none"/>
      </g>
      <rect id="Rectángulo_121" data-name="Rectángulo 121" width="3.506" height="5.676" transform="translate(26.028 25.376) rotate(-73.631)" fill="#797fc4"/>
      <rect id="Rectángulo_122" data-name="Rectángulo 122" width="3.506" height="5.676" transform="translate(16.26 22.507) rotate(-73.631)" fill="#797fc4"/>
      <rect id="Rectángulo_123" data-name="Rectángulo 123" width="3.506" height="5.676" transform="translate(6.525 19.647) rotate(-73.631)" fill="#797fc4"/>
    </g>
    <g id="Grupo_347" data-name="Grupo 347" transform="translate(146.7 43.09)">
      <g id="Grupo_346" data-name="Grupo 346" transform="translate(0 0)">
        <rect id="Rectángulo_124" data-name="Rectángulo 124" width="35.061" height="30.579" transform="matrix(0.282, -0.959, 0.959, 0.282, 0, 33.64)" fill="none"/>
      </g>
      <rect id="Rectángulo_125" data-name="Rectángulo 125" width="3.506" height="5.676" transform="translate(26.028 25.376) rotate(-73.631)" fill="#797fc4"/>
      <rect id="Rectángulo_126" data-name="Rectángulo 126" width="3.506" height="5.676" transform="translate(16.261 22.507) rotate(-73.631)" fill="#797fc4"/>
      <rect id="Rectángulo_127" data-name="Rectángulo 127" width="3.506" height="5.676" transform="translate(6.525 19.647) rotate(-73.631)" fill="#797fc4"/>
    </g>
    <g id="Grupo_349" data-name="Grupo 349" transform="translate(176.04 51.707)">
      <g id="Grupo_348" data-name="Grupo 348" transform="translate(0)">
        <rect id="Rectángulo_128" data-name="Rectángulo 128" width="35.061" height="30.579" transform="translate(0 33.64) rotate(-73.631)" fill="none"/>
      </g>
      <rect id="Rectángulo_129" data-name="Rectángulo 129" width="3.506" height="5.676" transform="translate(26.028 25.376) rotate(-73.631)" fill="#797fc4"/>
      <rect id="Rectángulo_130" data-name="Rectángulo 130" width="3.506" height="5.676" transform="translate(16.26 22.507) rotate(-73.631)" fill="#797fc4"/>
      <rect id="Rectángulo_131" data-name="Rectángulo 131" width="3.506" height="5.676" transform="translate(6.525 19.647) rotate(-73.631)" fill="#797fc4"/>
    </g>
    <g id="Grupo_351" data-name="Grupo 351" transform="translate(205.38 60.325)">
      <g id="Grupo_350" data-name="Grupo 350" transform="translate(0 0)">
        <rect id="Rectángulo_132" data-name="Rectángulo 132" width="35.061" height="30.579" transform="matrix(0.282, -0.959, 0.959, 0.282, 0, 33.64)" fill="none"/>
      </g>
      <rect id="Rectángulo_133" data-name="Rectángulo 133" width="3.506" height="5.676" transform="translate(26.028 25.376) rotate(-73.631)" fill="#797fc4"/>
      <rect id="Rectángulo_134" data-name="Rectángulo 134" width="3.506" height="5.676" transform="translate(16.261 22.507) rotate(-73.631)" fill="#797fc4"/>
      <rect id="Rectángulo_135" data-name="Rectángulo 135" width="3.506" height="5.676" transform="translate(6.525 19.647) rotate(-73.631)" fill="#797fc4"/>
    </g>
    <g id="Grupo_353" data-name="Grupo 353" transform="translate(234.72 68.943)">
      <g id="Grupo_352" data-name="Grupo 352">
        <rect id="Rectángulo_136" data-name="Rectángulo 136" width="35.061" height="30.579" transform="translate(0 33.64) rotate(-73.631)" fill="none"/>
      </g>
      <rect id="Rectángulo_137" data-name="Rectángulo 137" width="3.506" height="5.676" transform="translate(26.028 25.376) rotate(-73.631)" fill="#797fc4"/>
      <rect id="Rectángulo_138" data-name="Rectángulo 138" width="3.506" height="5.676" transform="translate(16.26 22.507) rotate(-73.631)" fill="#797fc4"/>
      <rect id="Rectángulo_139" data-name="Rectángulo 139" width="3.507" height="5.676" transform="translate(6.525 19.647) rotate(-73.631)" fill="#797fc4"/>
    </g>
    <g id="Grupo_355" data-name="Grupo 355" transform="translate(264.06 77.561)">
      <g id="Grupo_354" data-name="Grupo 354" transform="translate(0 0)">
        <rect id="Rectángulo_140" data-name="Rectángulo 140" width="35.061" height="30.579" transform="matrix(0.282, -0.959, 0.959, 0.282, 0, 33.64)" fill="none"/>
      </g>
      <rect id="Rectángulo_141" data-name="Rectángulo 141" width="3.506" height="5.676" transform="translate(26.028 25.376) rotate(-73.631)" fill="#797fc4"/>
      <rect id="Rectángulo_142" data-name="Rectángulo 142" width="3.506" height="5.676" transform="translate(16.261 22.507) rotate(-73.631)" fill="#797fc4"/>
      <rect id="Rectángulo_143" data-name="Rectángulo 143" width="3.506" height="5.676" transform="translate(6.525 19.647) rotate(-73.631)" fill="#797fc4"/>
    </g>
  </g>
  <g id="Grupo_357" data-name="Grupo 357" transform="translate(324.912 303.609)">
    <path id="Trazado_489" data-name="Trazado 489" d="M299.251,396.122l8.832,11.114,1.261,1.587.774-2.93L297.532,410.3l-1.833.642a1.8,1.8,0,0,0-1.225,2.156,1.77,1.77,0,0,0,2.158,1.225l12.586-4.409,1.832-.642a1.782,1.782,0,0,0,.774-2.93l-8.832-11.116-1.261-1.587a1.764,1.764,0,0,0-2.479,0,1.8,1.8,0,0,0,0,2.48Z" transform="translate(-294.411 -393.132)" fill="#656cbc"/>
  </g>
</svg>
