<?xml version="1.0" encoding="UTF-8" standalone="no"?>
<svg
   xmlns:dc="http://purl.org/dc/elements/1.1/"
   xmlns:cc="http://creativecommons.org/ns#"
   xmlns:rdf="http://www.w3.org/1999/02/22-rdf-syntax-ns#"
   xmlns:svg="http://www.w3.org/2000/svg"
   xmlns="http://www.w3.org/2000/svg"
   xmlns:sodipodi="http://sodipodi.sourceforge.net/DTD/sodipodi-0.dtd"
   xmlns:inkscape="http://www.inkscape.org/namespaces/inkscape"
   id="Componente_22_1"
   data-name="Componente 22 – 1"
   width="388.113"
   height="405.133"
   viewBox="0 0 388.113 405.133"
   version="1.1"
   sodipodi:docname="T10M-4-eng.svg"
   inkscape:version="1.0.2-2 (e86c870879, 2021-01-15)">
  <metadata
     id="metadata36">
    <rdf:RDF>
      <cc:Work
         rdf:about="">
        <dc:format>image/svg+xml</dc:format>
        <dc:type
           rdf:resource="http://purl.org/dc/dcmitype/StillImage" />
        <dc:title></dc:title>
      </cc:Work>
    </rdf:RDF>
  </metadata>
  <defs
     id="defs34" />
  <sodipodi:namedview
     pagecolor="#ffffff"
     bordercolor="#666666"
     borderopacity="1"
     objecttolerance="10"
     gridtolerance="10"
     guidetolerance="10"
     inkscape:pageopacity="0"
     inkscape:pageshadow="2"
     inkscape:window-width="1366"
     inkscape:window-height="715"
     id="namedview32"
     showgrid="false"
     inkscape:zoom="2.1227597"
     inkscape:cx="194.0565"
     inkscape:cy="164.87971"
     inkscape:window-x="-8"
     inkscape:window-y="22"
     inkscape:window-maximized="1"
     inkscape:current-layer="Componente_22_1" />
  <g
     id="Grupo_401"
     data-name="Grupo 401"
     transform="translate(0 120.872)">
    <path
       id="Trazado_539"
       data-name="Trazado 539"
       d="M16.707,389.665C13.182,340.1,49.121,293.2,98.655,284.053c16.489-3.043,33.458-1.833,50.134-3.579,36.618-3.833,70.1-21.607,105.24-32.581s76.7-14.063,105.806,8.483c10.956,8.488,19.242,20.005,25.793,32.218a163.181,163.181,0,0,1,9.149,131.831c-5.545,15.018-13.453,29.343-24.563,40.868-12.128,12.581-27.619,21.4-43.472,28.754-44.81,20.777-94.908,31.094-144.06,26.23s-97.17-25.407-132.326-60.1c-18.433-18.191-33.767-41.75-33.926-67.648"
       transform="translate(-16.429 -239.482)"
       fill="#d1d2ff" />
    <line
       id="Línea_12"
       data-name="Línea 12"
       x2="346.307"
       transform="translate(19.639 154.366)"
       fill="none"
       stroke="#656cbc"
       stroke-miterlimit="10"
       stroke-width="1" />
  </g>
  <path
     id="Trazado_540"
     data-name="Trazado 540"
     d="M255.592,165.988l18.668-24.036c2.553-3.289,6.27-6.964,10.213-5.629,3.383,1.146,4.564,5.441,4.116,8.984-.5,3.969-2.349,7.625-4.179,11.182q-13.77,26.774-28.456,53.061c-.559,1-.986,3.219-1.4,2.151-.452-1.165.7-8.107.694-9.459-.049-13.746.166-20.2,1.833-33.843"
     transform="translate(23.681 -136.041)"
     fill="#b28b67" />
  <path
     id="Trazado_541"
     data-name="Trazado 541"
     d="M123.63,202.326l2.841-39.059a8.3,8.3,0,0,1,8.783-7.683l142.634,8.679A4.494,4.494,0,0,1,282.1,169l-16.066,284.7c-.141,2.512-2.317,2.011-4.826,1.823L110.072,446.59a4.5,4.5,0,0,1-4.147-4.815Z"
     transform="translate(-1.35 -132.751)"
     fill="#f9f8ff" />
  <path
     id="Trazado_542"
     data-name="Trazado 542"
     d="M107.542,375.644l159.679,11.968-2.567,30.047L107.542,406.281Z"
     transform="translate(-1.075 -95.664)"
     fill="#898de0" />
  <path
     id="Trazado_543"
     data-name="Trazado 543"
     d="M122.205,178.311l155.954,9.911.87-18.271c.166-3.5-2.491-7.355-5.983-7.6l-142.009-9.012a6.791,6.791,0,0,0-7.238,6.172Z"
     transform="translate(1.396 -133.128)"
     fill="#898de0" />
  <g
     id="Grupo_402"
     data-name="Grupo 402"
     transform="translate(102.826 18.752)">
    <path
       id="Trazado_544"
       data-name="Trazado 544"
       d="M125.633,200.5l1.6-21.927.985-13.537c.24-3.3.192-6.722,3.489-8.649,1.706-1,3.461-.9,5.312-.783l5.626.342,20.877,1.27,29.055,1.768,31.594,1.922,28.494,1.733,19.754,1.2,4.851.294c1.809.111,3.364.931,3.334,3.07-.025,1.736-.2,3.484-.294,5.219l-.744,13.181-1.112,19.732-1.4,24.864-1.614,28.583-1.742,30.884-1.8,31.922-1.762,31.233-1.652,29.282L267.01,408.02l-1.192,21.128-.842,14.927c-.138,2.441-.243,4.886-.414,7.324a2.918,2.918,0,0,1-3.134,2.961c-.885-.036-1.773-.133-2.655-.2l-15.947-1.2-25.963-1.949-30.97-2.325-30.972-2.325-25.962-1.948-15.991-1.2c-.86-.064-1.757-.063-2.612-.2-1.957-.3-2.5-1.965-2.385-3.656.2-2.848.422-5.7.632-8.543l1.268-17.154,1.759-23.772,2.1-28.4,2.295-31.032,2.352-31.823,2.242-30.314,1.993-26.962,1.6-21.618,1.055-14.282.367-4.96c.167-2.251-3.34-2.24-3.506,0l-.4,5.442-1.1,14.852-1.651,22.33L116.94,270.67l-2.288,30.945-2.366,32L109.973,364.9l-2.087,28.219-1.726,23.347-1.2,16.2c-.175,2.376-.415,4.757-.527,7.137a6.371,6.371,0,0,0,5.993,6.729c1.027.1,2.059.154,3.087.231l16.911,1.27,26.732,2.006,31.6,2.372,31,2.326,25.484,1.914,14.561,1.093a8.8,8.8,0,0,0,4.525-.41c2.485-1.1,3.592-3.44,3.749-6.007.154-2.524.285-5.05.428-7.577l.868-15.385,1.218-21.588,1.5-26.522,1.679-29.745,1.792-31.777,1.809-32.048,1.757-31.15,1.609-28.5L282.12,202.4,283.2,183.3l.692-12.252c.136-2.416.648-5.215-.693-7.382-2.3-3.717-7.814-3.149-11.64-3.382l-20.7-1.26-29.344-1.785-31.892-1.94-28.878-1.757-19.77-1.2c-5.062-.307-10.278-1.117-13.9,3.545-2.18,2.806-2.149,6.173-2.393,9.525l-1.011,13.911L122.128,200.5C121.964,202.755,125.471,202.744,125.633,200.5Z"
       transform="translate(-104.426 -152.089)"
       fill="#656cbc" />
  </g>
  <path
     id="Trazado_545"
     data-name="Trazado 545"
     d="M187.894,444.245c-7.356,11.1-16.688,12.4-25.109,22.8-5.449,6.727-4.773,16.5-5.8,24.856l-3.848,31.253c-.339,2.753-.928,5.9-3.334,7.281-2.294,1.316-5.178.4-7.623-.609C119.334,520.434,99.191,505.642,79.307,491l-12.213-9c-3.4-2.508-6.85-5.054-9.492-8.355-5.949-7.435-3.447-15.084-.907-23.359,15.179-49.463,5.117-105.517,28.082-151.881,5.61-11.325,13.053-21.705,18.161-33.266,9.266-20.973,10.7-45.438,23.832-64.231,1.464-2.094,3.254-4.224,5.741-4.812,5.721-1.354,9.521,5.76,10.719,11.515a129.27,129.27,0,0,1-5.515,71.374c-4.054,10.782-9.553,21.01-13.024,31.993-6.441,20.372-5.189,41.659-7.065,64-1.122,13.357-3.065,25.808-3.348,39.467-.16,7.744-2.706,19.576,1,23.14,3.438,3.306,26.715,2.378,31.447,2.968,14.521,1.812,27.613,3.122,41.168,3.694"
     transform="translate(-10.108 -125.949)"
     fill="#b28b67" />
  <path
     id="Trazado_546"
     data-name="Trazado 546"
     d="M261.579,261.606q11.314-25.617,21.554-51.69c1.152-2.934,2.21-6.534.247-9a6.921,6.921,0,0,0-4.056-2.193c-7.92-1.7-15.537,3.55-21.685,8.825-9.105,7.812-17.952,16.945-20.93,28.567a7.389,7.389,0,0,0-.064,4.625c.851,2.054,3.288,3.091,5.506,2.946a13.927,13.927,0,0,0,6.155-2.385c3.017-1.837,6.364-4.938,9.05-7.232a261.238,261.238,0,0,1-2.122,30.642,23.778,23.778,0,0,0,6.774-2.828"
     transform="translate(20.622 -125.533)"
     fill="#b28b67" />
  <path
     id="Trazado_547"
     data-name="Trazado 547"
     d="M278.054,248.763a85.18,85.18,0,0,0-36.969,17.183,31.166,31.166,0,0,0-7.665,8.242,6.431,6.431,0,0,0-1.09,4.547,5.209,5.209,0,0,0,4.438,3.58,15.274,15.274,0,0,0,5.975-.692l12.618-3.191c-.455,6.3-.817,15.042-1.271,21.345,5.095-2,9.934-3.955,15.028-5.955,1.656-.65,2.053.251,3.363-.951,1.123-1.031,3.354-6.441,4.059-7.79a104.654,104.654,0,0,0,8.372-23.357,20.316,20.316,0,0,0,.847-6.971,7.392,7.392,0,0,0-3.48-5.823c-2.073-1.114-5.074-.529-6.135,1.572"
     transform="translate(19.937 -117.111)"
     fill="#b28b67" />
  <path
     id="Trazado_548"
     data-name="Trazado 548"
     d="M277.838,285.263c-6.61-1.222-12.864,1.4-19,4.145-8.2,3.665-15.913,8.725-21.647,15.636-1.568,1.891-3.055,4.188-2.692,6.617.469,3.149,4,5.082,7.184,4.914s8.32-3.34,11.044-4.99c-.479,8.008-1.229,15.308-1.269,23.341,0,.844-.405,3.666-.108,4.395.352.861,1.777-.252,2.474-.867,10.43-9.194,21.085-18.667,27.6-30.948,2.017-3.8,3.638-8,3.368-12.293s-2.845-8.672-6.955-9.95"
     transform="translate(20.31 -110.947)"
     fill="#b28b67" />
  <text
     id="Test_10_metros"
     data-name="Test 10 metros"
     transform="matrix(0.98506065,0.06739452,-0.06568669,1.0106719,0,0)"
     fill="#656cbc"
     font-size="12.2495px"
     font-family="Lato-Bold, Lato"
     font-weight="700"
     x="145.60201"
     y="83.081192"
     style="stroke-width:0.816636"><tspan
       x="145.60201"
       y="83.081192"
       id="tspan15"
       style="stroke-width:0.816636">10 meter walking test</tspan></text>
  <g
     id="Grupo_407"
     data-name="Grupo 407"
     transform="translate(135.442 116.648)">
    <circle
       id="Elipse_59"
       data-name="Elipse 59"
       cx="41.339"
       cy="41.339"
       r="41.339"
       transform="translate(15.959 15.324)"
       fill="#f1f1e6" />
    <g
       id="Grupo_403"
       data-name="Grupo 403"
       transform="translate(14.289 13.604)">
      <path
         id="Trazado_549"
         data-name="Trazado 549"
         d="M227.162,290.568a39.471,39.471,0,1,1-.473-6.2,39.962,39.962,0,0,1,.473,6.2,1.754,1.754,0,0,0,3.506,0,43.153,43.153,0,1,0-.536,6.737,46.275,46.275,0,0,0,.536-6.737A1.754,1.754,0,0,0,227.162,290.568Z"
         transform="translate(-144.567 -247.509)"
         fill="#ffbf60" />
    </g>
    <g
       id="Grupo_404"
       data-name="Grupo 404"
       transform="translate(7.414 7.312)">
      <path
         id="Trazado_550"
         data-name="Trazado 550"
         d="M236.79,292.056a48.132,48.132,0,1,1-.6-7.651,49.336,49.336,0,0,1,.6,7.651.877.877,0,0,0,1.753,0,49.98,49.98,0,1,0-.6,7.723,52.407,52.407,0,0,0,.6-7.723A.877.877,0,0,0,236.79,292.056Z"
         transform="translate(-138.684 -242.125)"
         fill="#ffbf60" />
    </g>
    <g
       id="Grupo_405"
       data-name="Grupo 405">
      <path
         id="Trazado_551"
         data-name="Trazado 551"
         d="M246.162,293.214a56.446,56.446,0,1,1-.673-8.769,57.969,57.969,0,0,1,.673,8.769.438.438,0,0,0,.876,0,57.373,57.373,0,1,0-.674,8.8,59.518,59.518,0,0,0,.674-8.8A.438.438,0,0,0,246.162,293.214Z"
         transform="translate(-132.339 -235.867)"
         fill="#ffbf60" />
    </g>
    <path
       id="Trazado_552"
       data-name="Trazado 552"
       d="M169.114,267.279l-3.383,41.374a2.029,2.029,0,0,0,2.876,2.008l39.211-18.171a2.03,2.03,0,0,0,.25-3.545l-35.828-23.2A2.03,2.03,0,0,0,169.114,267.279Z"
       transform="translate(-126.713 -230.889)"
       fill="#d1d2ff" />
    <g
       id="Grupo_406"
       data-name="Grupo 406"
       transform="translate(38.427 33.939)">
      <path
         id="Trazado_553"
         data-name="Trazado 553"
         d="M167.833,311.521a2.619,2.619,0,0,1-2.6-2.83l3.383-41.376a2.613,2.613,0,0,1,4.026-1.981l35.827,23.2a2.614,2.614,0,0,1-.321,4.567l-39.211,18.17A2.611,2.611,0,0,1,167.833,311.521Zm3.389-45.439a1.452,1.452,0,0,0-1.442,1.329L166.4,308.786a1.445,1.445,0,0,0,2.05,1.428l39.21-18.17a1.445,1.445,0,0,0,.179-2.524l-35.828-23.2A1.44,1.44,0,0,0,171.222,266.082Z"
         transform="translate(-165.224 -264.912)"
         fill="#898de0" />
    </g>
  </g>
  <rect
     id="Rectángulo_152"
     data-name="Rectángulo 152"
     width="42.706"
     height="7.066"
     rx="3.024"
     transform="translate(182.41 34.692) rotate(3.142)"
     fill="#d1d2ff" />
  <circle
     id="Elipse_60"
     data-name="Elipse 60"
     cx="9.379"
     cy="9.379"
     r="9.379"
     transform="translate(176.991 290.086)"
     fill="#d1d2ff" />
</svg>
