<svg id="Grupo_596" data-name="Grupo 596" xmlns="http://www.w3.org/2000/svg" xmlns:xlink="http://www.w3.org/1999/xlink" width="12.587" height="21.339" viewBox="0 0 12.587 21.339">
  <defs>
    <clipPath id="clip-path">
      <rect id="Rectángulo_332" data-name="Rectángulo 332" width="12.587" height="21.339" fill="#fff"/>
    </clipPath>
  </defs>
  <g id="Grupo_595" data-name="Grupo 595" clip-path="url(#clip-path)">
    <path id="Trazado_745" data-name="Trazado 745" d="M27.165,57.02H23.634c-.615,0-.721-.143-.517-.744.153-.451.328-.894.5-1.34q1-2.652,2-5.3c.321-.85.692-1.036,1.545-.695,1.444.577,2.872,1.191,4.31,1.784a2.7,2.7,0,0,0,.442.1,1.557,1.557,0,0,0,.1-.482q-.184-1.438-.411-2.871a.613.613,0,0,1,.434-.78.587.587,0,0,1,.807.513c.149.874.246,1.758.356,2.638.075.6.156,1.2.2,1.8.037.54-.16.752-.7.7-1.152-.11-2.3-.237-3.446-.417-.431-.068-.616.026-.706.439q-.308,1.418-.654,2.827c-.088.361.019.483.392.485.984.006,1.973,0,2.951.085a2.455,2.455,0,0,1,2.157,2.312c.04,1.272.025,2.545.02,3.818,0,.478-.286.782-.663.765a.7.7,0,0,1-.614-.777c-.01-1.13,0-2.259,0-3.389a1.312,1.312,0,0,0-1.47-1.467q-1.742,0-3.484,0" transform="translate(-20.82 -42.189)" fill="#fff"/>
    <path id="Trazado_746" data-name="Trazado 746" d="M.008,64.316q0-3.627,0-7.253c0-.379.09-.746.466-.853a1.468,1.468,0,0,1,.937.035c.422.192.454.652.455,1.077q0,3.794,0,7.588,0,.167,0,.334c0,.731,0,.731.715.731q3.507,0,7.013,0c.981,0,1.335.346,1.338,1.309,0,1.447-.011,2.9.009,4.342.005.383-.117.521-.493.483-.252-.025-.508,0-.763,0-.615,0-.616,0-.617-.641,0-1.018-.011-2.036,0-3.054.006-.428-.162-.587-.595-.583q-3.006.023-6.011,0c-.437,0-.625.113-.61.594.034,1.081,0,2.163.016,3.245,0,.326-.088.469-.431.444a5.672,5.672,0,0,0-.953,0C.094,72.149,0,71.98,0,71.617c.011-2.434.006-4.867.006-7.3Z" transform="translate(0 -50.778)" fill="#fff"/>
    <path id="Trazado_747" data-name="Trazado 747" d="M71.556,2.461a3.537,3.537,0,0,1-3.031,3.326,1.309,1.309,0,0,1-1.116-.521c-.826-1.018-.982-3.66.57-4.748a2.122,2.122,0,0,1,2.364-.27,2.308,2.308,0,0,1,1.213,2.213" transform="translate(-60.405 0)" fill="#fff"/>
  </g>
</svg>
