<svg xmlns="http://www.w3.org/2000/svg" width="45" height="22.5" viewBox="0 0 45 22.5">
  <path id="Icon_awesome-battery-three-quarters" data-name="Icon awesome-battery-three-quarters" d="M38.25,11.25v4.5H40.5v4.5H38.25v4.5H4.5V11.25H38.25m1.125-4.5h-36A3.375,3.375,0,0,0,0,10.125v15.75A3.375,3.375,0,0,0,3.375,29.25h36a3.375,3.375,0,0,0,3.375-3.375V24.75h.563A1.687,1.687,0,0,0,45,23.063V12.938a1.687,1.687,0,0,0-1.687-1.687H42.75V10.125A3.375,3.375,0,0,0,39.375,6.75ZM29.25,13.5H6.75v9h22.5Z" transform="translate(0 -6.75)" fill="#424d99"/>
</svg>
