<svg xmlns="http://www.w3.org/2000/svg" width="215.026" height="46.666" viewBox="0 0 215.026 46.666">
  <g id="Grupo_9" data-name="Grupo 9" transform="translate(-420.474 -262.61)">
    <path id="Trazado_7" data-name="Trazado 7" d="M512.275,280.344c-3.554,3.365-6.186,5.619-8.535,8.136-3.417,3.662-6.632,3.177-9.855-.1-2.33-2.366-4.885-4.2-8.208-6.957,0,1.838.011,3.676,0,5.514-.04,5.831.047,11.667-.188,17.491-.122,3.016-.488,4.751-5.08,4.731-4.408-.02-4.5-2.992-4.548-4.662-.383-12.316-.3-24.651-.068-36.975a4.762,4.762,0,0,1,2.923-3.968c3.106-1.133,4.494.141,5.784,1.359,4.71,4.45,9.995,9.348,14.864,14.526,5-4.88,8.157-9.367,12.807-13.268,1.9-1.591,5.421-3.548,7.83-1.992,2.208,1.426,2.115,3.8,2.174,6.143.277,10.822.035,21.657.131,32.486.032,3.653-.857,6.5-5.014,6.464-4.2-.035-5-3.17-5.011-6.631C512.265,295.678,512.275,288.711,512.275,280.344Z" fill="#fff"/>
    <path id="Trazado_8" data-name="Trazado 8" d="M530.948,280.262c.006-3.994.049-7.989-.006-11.982-.05-3.542,2.058-5.162,5.1-5.119,3.955.057,4.436,3.247,4.58,5.153.564,7.447.059,14.969.406,22.442a8.52,8.52,0,0,0,8.156,8.571,8.835,8.835,0,0,0,9.492-6.461,17.012,17.012,0,0,0,.377-4.448c.034-6.324-.012-12.649.014-18.972.015-3.513,1.054-6.505,5.2-6.456,4.262.052,4.863,3.185,4.837,6.659-.054,6.99.056,13.981-.045,20.969-.155,10.777-8.355,18.676-19.228,18.658a18.721,18.721,0,0,1-18.88-18.53C530.867,287.254,530.941,283.757,530.948,280.262Z" fill="#fff"/>
    <path id="Trazado_9" data-name="Trazado 9" d="M600.667,292.6c4.837-9.358,9.117-17.944,13.752-26.334.883-1.6,2.581-3.4,4.828-3.344A5.8,5.8,0,0,1,624,265.863c.567,1.134-.254,3.6-.918,4.949q-8.472,17.248-17.243,34.351c-2.77,5.372-7.4,5.526-10.118.2-5.909-11.55-11.477-23.275-17.2-34.923-1.5-3.049-.966-5.608,2.1-7.168,3.205-1.629,5.443-.1,6.9,2.812C591.8,274.652,596.033,283.241,600.667,292.6Z" fill="#fff"/>
    <path id="Trazado_10" data-name="Trazado 10" d="M465.77,292.735c2.58-9.166.278-17.1-6.827-23.452-7.306-6.527-16.362-8.193-24.943-3.9-8,4-12,9-13.255,16.165-2.745,19.835,15.9,32.169,31.177,26.236,2.843-1.1,4.831-1.663,7.6.461,1.481,1.138,3.481,1.138,5.669-.5,1.812-1.359,1.682-4.02,1.041-4.625C462.518,299.61,464.765,296.3,465.77,292.735Zm-9.675-1.649c-3.83-1.86-6.712-7.964-11.183-3.56-4.576,4.508,1.21,7.393,3.472,10.594-4.788,3.074-10.512,1.868-15.041-2.961a13.03,13.03,0,0,1-.477-16.9,13.4,13.4,0,0,1,16.936-3.931C456.231,277.7,458.581,283.568,456.1,291.086Z" fill="#fff"/>
    <g id="Grupo_8" data-name="Grupo 8">
      <g id="Grupo_6" data-name="Grupo 6">
        <path id="Trazado_11" data-name="Trazado 11" d="M628.5,309.276a7,7,0,1,1,7-7A7.008,7.008,0,0,1,628.5,309.276Zm0-13a6,6,0,1,0,6,6A6.007,6.007,0,0,0,628.5,296.276Z" fill="#fff"/>
      </g>
      <g id="Grupo_7" data-name="Grupo 7">
        <path id="Trazado_12" data-name="Trazado 12" d="M629.9,299.366a1.518,1.518,0,0,1,.574.429,1.9,1.9,0,0,1,.308.516,1.719,1.719,0,0,1,.114.646,1.825,1.825,0,0,1-.221.859,1.235,1.235,0,0,1-.728.6,1.144,1.144,0,0,1,.6.485,2.015,2.015,0,0,1,.177.959v.413a3.057,3.057,0,0,0,.034.57.514.514,0,0,0,.237.35v.154h-1.415c-.039-.136-.067-.246-.084-.329a3.083,3.083,0,0,1-.054-.529l-.008-.57a1.162,1.162,0,0,0-.2-.783,1.036,1.036,0,0,0-.73-.2h-1.253v2.407H626v-6.137h2.935A2.677,2.677,0,0,1,629.9,299.366Zm-2.651.908v1.648h1.38a1.482,1.482,0,0,0,.617-.1.692.692,0,0,0,.364-.692.776.776,0,0,0-.352-.749,1.276,1.276,0,0,0-.593-.108Z" fill="#fff"/>
      </g>
    </g>
  </g>
</svg>
