<svg id="Componente_30_1" data-name="Componente 30 – 1" xmlns="http://www.w3.org/2000/svg" xmlns:xlink="http://www.w3.org/1999/xlink" width="303" height="151" viewBox="0 0 303 151">
  <defs>
    <clipPath id="clip-path">
      <rect id="Rectángulo_54" data-name="Rectángulo 54" width="302.759" height="151" fill="none"/>
    </clipPath>
  </defs>
  <g id="Grupo_139" data-name="Grupo 139" transform="translate(0.241)" clip-path="url(#clip-path)">
    <path id="Trazado_167" data-name="Trazado 167" d="M81.96,8.61S69.95,3.465,64.577,19.371c0,0-2.057,9.739,0,13.244,0,0-62.918-23.178-64.574,40.561v79.155H98.93l-38.9-68.808Z" transform="translate(-0.001 -1.333)" fill="#d1d2ff"/>
    <rect id="Rectángulo_53" data-name="Rectángulo 53" width="134.356" height="67.469" rx="3.669" transform="translate(147.958 11.648)" fill="#f1f1e6"/>
    <g id="Grupo_133" data-name="Grupo 133" transform="translate(146.729 10.353)">
      <path id="Trazado_194" data-name="Trazado 194" d="M221.537,36.718V22.358c0-2.075-.367-4.513,1.241-6.122,1.778-1.777,4.92-1.24,7.211-1.24h7.823a1.221,1.221,0,0,0,0-2.44h-7.269c-2.472,0-5.5-.419-7.785.721a6.728,6.728,0,0,0-3.624,5.319A20.479,20.479,0,0,0,219.1,20.7V36.718a1.22,1.22,0,0,0,2.439,0Z" transform="translate(-219.088 -12.481)" fill="#ffbf60"/>
    </g>
    <g id="Grupo_134" data-name="Grupo 134" transform="translate(146.738 57.569)">
      <path id="Trazado_195" data-name="Trazado 195" d="M237.813,89.733c-4.009,0-8.026.082-12.034,0a4.285,4.285,0,0,1-4.038-2.938,7.244,7.244,0,0,1-.2-2.256V70.582a1.22,1.22,0,0,0-2.439,0V84.539a10.465,10.465,0,0,0,.215,2.646,6.728,6.728,0,0,0,4.012,4.516c2.084.83,4.767.472,6.96.472h7.527a1.22,1.22,0,0,0,0-2.439Z" transform="translate(-219.099 -69.404)" fill="#ffbf60"/>
    </g>
    <g id="Grupo_135" data-name="Grupo 135" transform="translate(259.366 57.569)">
      <path id="Trazado_196" data-name="Trazado 196" d="M320.153,70.582V84.9a4.863,4.863,0,0,1-.965,3.294,4.485,4.485,0,0,1-3.621,1.538c-2.539.012-5.078,0-7.616,0H300.6a1.22,1.22,0,0,0,0,2.439H315.5a6.822,6.822,0,0,0,7.1-6.691c.051-2.34,0-4.687,0-7.028V70.582a1.22,1.22,0,0,0-2.439,0Z" transform="translate(-299.425 -69.404)" fill="#ffbf60"/>
    </g>
    <g id="Grupo_136" data-name="Grupo 136" transform="translate(259.366 10.328)">
      <path id="Trazado_197" data-name="Trazado 197" d="M300.6,14.992c5.013,0,10.028-.032,15.041,0a4.383,4.383,0,0,1,3.98,2.185,5.8,5.8,0,0,1,.528,2.971V36.713a1.22,1.22,0,0,0,2.439,0V20.26a9.453,9.453,0,0,0-.362-3.2,6.723,6.723,0,0,0-5.353-4.43,54.5,54.5,0,0,0-7.6-.08H300.6a1.221,1.221,0,0,0,0,2.44Z" transform="translate(-299.425 -12.451)" fill="#ffbf60"/>
    </g>
    <g id="Grupo_137" data-name="Grupo 137" transform="translate(151.38 80.337)">
      <path id="Trazado_198" data-name="Trazado 198" d="M183.679,138.6h64.154a13.7,13.7,0,0,0,2.569-.123,6.457,6.457,0,0,0,5.224-6.375c.245-8.14,0-16.322,0-24.465V97.986a1.223,1.223,0,0,1,2.439,0c0,16.744.076,16.9,0,33.644a9.008,9.008,0,0,1-9,9.318c-2.262.067-4.537,0-6.8,0H183.679a1.173,1.173,0,1,1,0-2.347Z" transform="translate(-182.5 -96.852)" fill="#ffbf60"/>
    </g>
    <g id="Grupo_54" data-name="Grupo 54" transform="translate(22.089 2.368)">
      <path id="Trazado_64" data-name="Trazado 64" d="M289.873,218.081l8.023,6.334S285.3,254.7,286.8,259.351a9.621,9.621,0,0,1,3.2,5.043s16.255-20.28,19.354-36.3c0,0,1.81-7.422-3.311-15.76l-4.923-6.258s-3.464,5.2-4.528,6.705C295.479,214.358,289.873,218.081,289.873,218.081Z" transform="translate(-202.132 -145.347)" fill="#ffbf60"/>
      <path id="Trazado_65" data-name="Trazado 65" d="M204.222,406.375c-2.866,4.062-8.665,4.47-12.932,7.022a4.26,4.26,0,0,0-1.541,1.371c-.882,1.47.014,3.486,1.456,4.412a10.087,10.087,0,0,0,4.95,1.152,104.444,104.444,0,0,0,16.2.1c1.781-.175,3.775-.576,4.739-2.083a5.89,5.89,0,0,0,.72-2.389,42.1,42.1,0,0,0,.342-8.3,1.02,1.02,0,0,0-.988-1.227,63.034,63.034,0,0,0-11.741-1.052" transform="translate(-189.399 -171.434)" fill="#001d60"/>
      <path id="Trazado_66" data-name="Trazado 66" d="M269.473,406.16c-1.626,4.7-7.084,6.7-10.475,10.336a4.265,4.265,0,0,0-1.1,1.746c-.439,1.656.981,3.344,2.624,3.834a10.09,10.09,0,0,0,5.076-.268,104.383,104.383,0,0,0,15.587-4.4c1.662-.662,3.466-1.6,3.974-3.317a5.887,5.887,0,0,0,.029-2.5,42.127,42.127,0,0,0-1.975-8.064,1.02,1.02,0,0,0-1.291-.9,62.946,62.946,0,0,0-11.57,2.25" transform="translate(-198.355 -171.071)" fill="#001d60"/>
      <path id="Trazado_67" data-name="Trazado 67" d="M230.167,253.192l-10.777,47.6-13.408,83.26s2.194,5.138,15.873,4.121c0,0,14.884-58.878,14.26-75.4,0,0,5.236-9.917,11.614-35.151l5.4-16.727Z" transform="translate(-191.57 -151.514)" fill="#424d99"/>
      <path id="Trazado_68" data-name="Trazado 68" d="M245.622,259.152l2.6,9.05s3.512,44.809,4.96,51.687l13.99,66.982s9.664,3.313,15.612-5.825l-10.276-61.158,4.239-44.447s3.131-19.021-1.958-28.308l-29.171-.508Z" transform="translate(-196.758 -150.655)" fill="#424d99"/>
      <path id="Trazado_69" data-name="Trazado 69" d="M258.557,141.892a13.1,13.1,0,0,0-10.435-5.688c-5.032-.1-9.774,2.827-12.9,6.772s-4.845,8.814-6.116,13.683-2.15,9.855-3.857,14.59a78.09,78.09,0,0,0-2.9,8.144c-1.749,7.3.747,15.3,5.774,20.874s12.339,8.832,19.8,9.678a15.3,15.3,0,0,0,6.325-.35,17.735,17.735,0,0,0,5.262-3.072c6.59-5.039,13.019-11.514,13.987-19.752a31.341,31.341,0,0,0-1.07-10.727A120.441,120.441,0,0,0,258.5,141.66" transform="translate(-193.64 -136.201)" fill="#424d99"/>
      <g id="Head" transform="translate(41.236 3.565)">
        <path id="Head-2" d="M246.65,181.5l.377-13.354c-3.655,2.2-4.371,2.309-6.057,1.875-4.227-1.089-5.572-18.468-2.3-24.563s20.083-8.753,20.93,3.324a26.779,26.779,0,0,1-2.434,13.078l3.031,19.64Z" transform="translate(-236.845 -140.304)" fill="#d4a181"/>
      </g>
      <path id="Trazado_70" data-name="Trazado 70" d="M239.83,141.459s1.918,20.437,23.952,21.612C263.782,163.071,264.74,128.581,239.83,141.459Z" transform="translate(-196 -136.513)" fill="#424d99"/>
      <path id="Trazado_71" data-name="Trazado 71" d="M234.97,222.92l-8.99-8.908-14.6-21.423s-3.9,1.382-5.522,2c0,0,6,26.887,18.431,35.724h11.088Z" transform="translate(-191.554 -143.582)" fill="#ffbf60"/>
      <path id="Trazado_72" data-name="Trazado 72" d="M237.263,226.233c.036,9.641-6.578,22.658-6.578,22.658-3.158,3.169-1.763,4.5-1.763,4.5,14.427,9.478,39.069,3.686,39.069,3.686,15.079-2.4,11.176-8.04,11.176-8.04-11.69-9.473-7.666-39.552-7.666-39.552l10.181,10.222s10.4-3.789,11.587-16.968c0,0-13.092-12.286-22.982-17.089l-12.027-5.065s-5.136,4-7.008,4.218c-1.6.183-8.107-3.482-8.107-3.482s-10.059,2.394-13.72,18.327l-2.419,9.843s-2.711,2.453,8.111,9.655Z" transform="translate(-194.282 -142.011)" fill="#898de0"/>
      <path id="Trazado_73" data-name="Trazado 73" d="M288.2,272.487a57.11,57.11,0,0,1-5.382,6.289c-2.168,2.032-4.706,3.856-7.64,4.324a2.749,2.749,0,0,1-1.516-.087,1.163,1.163,0,0,1-.742-1.212,1.736,1.736,0,0,1,.539-.813,93.225,93.225,0,0,1,9-7.728c-1.291.91-4.64,2.55-6.154,2.1-.647-.19-1.341-.623-1.387-1.3-.056-.816.829-1.334,1.577-1.666a64.066,64.066,0,0,0,6.647-3.424,6.591,6.591,0,0,0,1.862-1.6,12.013,12.013,0,0,1,2.667,3.159A10.832,10.832,0,0,1,288.2,272.487Z" transform="translate(-200.329 -153.37)" fill="#d4a181"/>
      <path id="Trazado_74" data-name="Trazado 74" d="M198.666,186.617a3.771,3.771,0,0,1-1.081-1.662.941.941,0,0,1-.015-.654.8.8,0,0,1,1.128-.236,2.067,2.067,0,0,1,.729,1.058,5.893,5.893,0,0,1,.309.7c-.03.281-.636.249-.686.528" transform="translate(-190.462 -142.449)" fill="#d4a181"/>
      <path id="Trazado_75" data-name="Trazado 75" d="M245.622,181.321,251.4,207.1l9.336-26.514s-4.062,3.25-7.319,3.664C251.358,184.512,248.27,182.729,245.622,181.321Z" transform="translate(-196.758 -142.011)" fill="#ffbf60"/>
      <path id="Trazado_76" data-name="Trazado 76" d="M240.894,183.532l8.156,28.137,1.732-4.459L245,181.432A26.52,26.52,0,0,0,240.894,183.532Z" transform="translate(-196.139 -142.121)" fill="#d1d2ff"/>
      <path id="Trazado_77" data-name="Trazado 77" d="M250.278,211.559h4.774l11.3-28.865-5.005-2.108Z" transform="translate(-197.368 -142.011)" fill="#656cbc"/>
      <g id="Grupo_46" data-name="Grupo 46" transform="translate(39.368 60.429)">
        <path id="Trazado_78" data-name="Trazado 78" d="M236.254,205.946a22.3,22.3,0,0,0-1.269,4.948,19.1,19.1,0,0,0,.9,10.118,13.976,13.976,0,0,0,3.971,5.412c.315.265.773-.188.455-.455a14.136,14.136,0,0,1-4.915-9.934,23.569,23.569,0,0,1,.946-8.318,16.426,16.426,0,0,1,.532-1.6c.155-.384-.468-.551-.621-.171Z" transform="translate(-234.697 -205.731)" fill="#d1d2ff"/>
      </g>
      <g id="Grupo_47" data-name="Grupo 47" transform="translate(32.869 67.342)">
        <path id="Trazado_79" data-name="Trazado 79" d="M227.248,214.179a15.087,15.087,0,0,0,1.188,2.161,18.366,18.366,0,0,0,3.578,4.156,13.927,13.927,0,0,0,3.158,2.029c.374.172.7-.382.325-.555a16.3,16.3,0,0,1-7.334-7.377c-.127-.242-.252-.487-.36-.738-.163-.379-.717-.052-.555.325Z" transform="translate(-227.218 -213.685)" fill="#d1d2ff"/>
      </g>
      <g id="Grupo_48" data-name="Grupo 48" transform="translate(72.261 44.454)">
        <path id="Trazado_80" data-name="Trazado 80" d="M275.455,187.5a16.682,16.682,0,0,0-1.852,4.118,22.172,22.172,0,0,0-.771,10.349,24.544,24.544,0,0,0,2.623,7.557c.195.365.751.041.556-.325a22.806,22.806,0,0,1-2.766-12.49,21.021,21.021,0,0,1,2.055-7.6,11.3,11.3,0,0,1,.711-1.281c.229-.345-.327-.667-.556-.325Z" transform="translate(-272.543 -187.35)" fill="#d1d2ff"/>
      </g>
      <g id="Grupo_49" data-name="Grupo 49" transform="translate(86.682 60.411)">
        <path id="Trazado_81" data-name="Trazado 81" d="M289.531,221.512a12.069,12.069,0,0,0,3.291-1.722,18.272,18.272,0,0,0,5.767-6.719,23.971,23.971,0,0,0,2.215-6.957c.067-.405-.553-.579-.621-.171-.988,5.95-4.129,11.794-9.74,14.5a7.283,7.283,0,0,1-1.084.448c-.395.119-.227.741.171.62Z" transform="translate(-289.135 -205.71)" fill="#d1d2ff"/>
      </g>
      <g id="Grupo_50" data-name="Grupo 50" transform="translate(52.738 118.736)">
        <path id="Trazado_82" data-name="Trazado 82" d="M250.081,273.129l.253,4.16.608,9.987.732,12.024.635,10.443c.1,1.677.095,3.405.309,5.073,0,.023,0,.047,0,.07.025.411.668.414.643,0l-.253-4.16-.608-9.987-.732-12.025-.635-10.443c-.1-1.677-.095-3.405-.309-5.072a.653.653,0,0,1,0-.07c-.025-.412-.668-.415-.643,0Z" transform="translate(-250.08 -272.819)" fill="#d1d2ff"/>
      </g>
      <g id="Grupo_53" data-name="Grupo 53" transform="translate(7.14 33.154)">
        <g id="Grupo_51" data-name="Grupo 51">
          <path id="Trazado_83" data-name="Trazado 83" d="M198.061,178.65l4.052,12.513s.446,1.834,1.56,1.18l6.584-2.32s.885-.184.2-1.608l-4.014-13.207s-.34-.9-1.629-.524l-6.228,2.021S197.4,176.869,198.061,178.65Z" transform="translate(-197.647 -174.38)" fill="#f9f8ff"/>
          <path id="Trazado_84" data-name="Trazado 84" d="M203.187,192.668a.916.916,0,0,1-.355-.073c-.667-.283-.931-1.3-.96-1.414l-4.046-12.493a2,2,0,0,1-.036-1.722,1.093,1.093,0,0,1,.732-.507l6.192-2.011c1.468-.427,1.891.641,1.9.651l4.02,13.221a1.683,1.683,0,0,1,.171,1.448.813.813,0,0,1-.531.433l-6.557,2.312A1.019,1.019,0,0,1,203.187,192.668Zm2.182-17.893a1.905,1.905,0,0,0-.529.083l-6.222,2.018a.681.681,0,0,0-.462.316,1.665,1.665,0,0,0,.074,1.351l0,.008,4.052,12.513c.067.269.316.967.714,1.136a.577.577,0,0,0,.533-.074l6.622-2.337a.4.4,0,0,0,.265-.217c.076-.163.106-.485-.189-1.1L206.2,175.239A.848.848,0,0,0,205.369,174.775Z" transform="translate(-197.615 -174.348)" fill="#d1d2ff"/>
        </g>
        <g id="Grupo_52" data-name="Grupo 52" transform="translate(4.547 6.841)">
          <circle id="Elipse_9" data-name="Elipse 9" cx="1.202" cy="1.202" r="1.202" transform="translate(0.214 0.214)" fill="#adafff"/>
          <path id="Trazado_85" data-name="Trazado 85" d="M204.263,185.051a1.416,1.416,0,1,1,1.416-1.416A1.417,1.417,0,0,1,204.263,185.051Zm0-2.4a.987.987,0,1,0,.987.987A.989.989,0,0,0,204.263,182.647Z" transform="translate(-202.847 -182.219)" fill="#424d99"/>
        </g>
        <path id="Trazado_86" data-name="Trazado 86" d="M198.581,179.467l8.194-2.583-.4-1.284s-.14-1.191-1.727-.677l-6.161,2.008s-.764.409-.25,1.553Z" transform="translate(-197.673 -174.407)" fill="#f1f1e6"/>
        <rect id="Rectángulo_4" data-name="Rectángulo 4" width="2.565" height="1.389" rx="0.695" transform="translate(0.615 3.4) rotate(-18.865)" fill="#d1d2ff"/>
        <circle id="Elipse_10" data-name="Elipse 10" cx="0.599" cy="0.599" r="0.599" transform="translate(1.031 3.187)" fill="#001d60"/>
      </g>
      <path id="Trazado_87" data-name="Trazado 87" d="M198.834,188.007c.646,1.461.912,3.083,1.84,4.383a1.486,1.486,0,0,0,.473.475,1.376,1.376,0,0,0,.679.116,5.167,5.167,0,0,0,4.24-2.474,2.509,2.509,0,0,0,.3-2.3,2.556,2.556,0,0,0-1.849-1.215c-.747-.16-1.525-.166-2.255-.392-.5-.155-1.026-.163-1.5-.367a1.391,1.391,0,0,0-1.962.6A1.28,1.28,0,0,0,198.834,188.007Z" transform="translate(-190.614 -142.726)" fill="#d4a181"/>
    </g>
  </g>
  <text id="Próximamente" transform="translate(148 35)" fill="#424d99" font-size="18" font-family="Lato-Bold, Lato" font-weight="700"><tspan x="7.965" y="18">Próximamente</tspan></text>
  <rect id="Rectángulo_183" data-name="Rectángulo 183" width="303" height="151" fill="#fff" opacity="0.405"/>
</svg>
