<svg xmlns="http://www.w3.org/2000/svg" xmlns:xlink="http://www.w3.org/1999/xlink" width="303" height="151" viewBox="0 0 303 151">
  <defs>
    <clipPath id="clip-path">
      <rect id="Rectángulo_389" data-name="Rectángulo 389" width="303" height="151" transform="translate(909 52)" fill="#e9eaff" opacity="0.997"/>
    </clipPath>
  </defs>
  <g id="Enmascarar_grupo_4" data-name="Enmascarar grupo 4" transform="translate(-909 -52)" clip-path="url(#clip-path)">
    <g id="Grupo_598" data-name="Grupo 598" transform="translate(533 16)">
      <path id="Trazado_308" data-name="Trazado 308" d="M255.084,152.7l10.383-13.369c1.42-1.829,3.487-3.873,5.68-3.131,1.881.638,2.539,3.026,2.289,5a19.177,19.177,0,0,1-2.324,6.219q-7.659,14.891-15.827,29.512c-.311.557-.549,1.79-.779,1.2-.252-.648.389-4.509.386-5.261a124.032,124.032,0,0,1,1.02-18.823" transform="translate(321.243 -119.041)" fill="#b28b67"/>
      <path id="Trazado_309" data-name="Trazado 309" d="M115.767,181.574l1.58-21.724a4.617,4.617,0,0,1,4.885-4.273l79.331,4.827a2.5,2.5,0,0,1,2.345,2.637l-8.936,158.347c-.079,1.4-1.289,1.118-2.684,1.014l-84.062-4.971a2.5,2.5,0,0,1-2.307-2.678Z" transform="translate(373.244 -125.878)" fill="#f9f8ff"/>
      <path id="Trazado_310" data-name="Trazado 310" d="M107.542,375.644l88.811,6.656-1.428,16.712-87.383-6.329Z" transform="translate(372.673 -202.923)" fill="#898de0"/>
      <path id="Trazado_311" data-name="Trazado 311" d="M122.205,167.222l86.739,5.513.484-10.162c.092-1.945-1.386-4.091-3.328-4.226l-78.983-5.012a3.777,3.777,0,0,0-4.026,3.433Z" transform="translate(367.54 -125.092)" fill="#898de0"/>
      <g id="Grupo_223" data-name="Grupo 223" transform="translate(478.19 27.43)">
        <path id="Trazado_312" data-name="Trazado 312" d="M116.221,179.017l.887-12.2.548-7.529c.133-1.833.107-3.739,1.941-4.811a4.9,4.9,0,0,1,2.955-.435l3.129.19,11.611.706,16.16.983L171.024,157l15.848.964,10.987.669,2.7.164c1.006.062,1.871.518,1.854,1.707-.014.966-.109,1.938-.164,2.9l-.414,7.331-.619,10.974-.781,13.829-.9,15.9-.969,17.177-1,17.754-.98,17.372-.919,16.286-.814,14.412-.663,11.751-.469,8.3c-.077,1.358-.135,2.717-.23,4.074a1.623,1.623,0,0,1-1.743,1.647c-.492-.02-.986-.074-1.477-.111l-8.869-.665-14.44-1.084-17.225-1.293-17.226-1.293-14.44-1.083-8.894-.668c-.478-.036-.977-.035-1.453-.109-1.089-.169-1.392-1.093-1.326-2.034.111-1.584.235-3.168.352-4.752l.705-9.541.978-13.222,1.168-15.795,1.276-17.26,1.308-17.7,1.247-16.86,1.109-15,.889-12.023.587-7.943.2-2.759c.093-1.252-1.857-1.246-1.95,0l-.224,3.027-.611,8.26-.918,12.42-1.133,15.318-1.273,17.211-1.316,17.8-1.286,17.4-1.161,15.695-.96,12.985-.667,9.011c-.1,1.321-.231,2.646-.293,3.97a3.543,3.543,0,0,0,3.333,3.743c.571.054,1.145.086,1.717.129l9.406.706,14.868,1.116,17.574,1.319,17.241,1.294,14.174,1.065,8.1.608a4.9,4.9,0,0,0,2.516-.228,3.662,3.662,0,0,0,2.085-3.341c.086-1.4.159-2.809.238-4.214l.483-8.557.677-12.007.833-14.751.934-16.544,1-17.674,1.006-17.825.977-17.325.895-15.849.773-13.705.6-10.62.385-6.814c.075-1.344.361-2.9-.385-4.105-1.28-2.067-4.346-1.752-6.474-1.881l-11.513-.7-16.321-.993-17.738-1.079-16.061-.977-11-.669c-2.815-.171-5.717-.621-7.731,1.972-1.213,1.56-1.2,3.433-1.331,5.3l-.562,7.737-.857,11.78C114.181,180.268,116.131,180.263,116.221,179.017Z" transform="translate(-104.426 -152.089)" fill="#656cbc"/>
      </g>
      <path id="Trazado_313" data-name="Trazado 313" d="M128.442,334.038c-4.091,6.174-9.281,6.894-13.965,12.678-3.031,3.742-2.655,9.179-3.227,13.824l-2.14,17.383c-.188,1.531-.516,3.282-1.854,4.05-1.276.732-2.88.22-4.24-.339-12.705-5.221-23.908-13.448-34.968-21.594l-6.793-5a27.09,27.09,0,0,1-5.279-4.647c-3.309-4.135-1.917-8.39-.5-12.992,8.442-27.511,2.846-58.687,15.619-84.474,3.12-6.3,7.26-12.072,10.1-18.5,5.154-11.665,5.949-25.272,13.255-35.724a5.931,5.931,0,0,1,3.193-2.676c3.182-.753,5.3,3.2,5.962,6.4a71.9,71.9,0,0,1-3.068,39.7c-2.255,6-5.313,11.685-7.244,17.794-3.582,11.331-2.886,23.17-3.929,35.6-.624,7.429-1.7,14.354-1.862,21.951-.089,4.307-1.505,10.888.558,12.87,1.912,1.839,14.858,1.323,17.49,1.651,8.076,1.008,15.358,1.737,22.9,2.054" transform="translate(391.44 -140.007)" fill="#b28b67"/>
      <path id="Trazado_314" data-name="Trazado 314" d="M250.358,233.553Q256.65,219.3,262.346,204.8c.641-1.632,1.229-3.634.137-5.006a3.849,3.849,0,0,0-2.256-1.22c-4.405-.944-8.641,1.974-12.061,4.908-5.064,4.345-9.985,9.424-11.641,15.888a4.11,4.11,0,0,0-.036,2.572,3.066,3.066,0,0,0,3.062,1.638,7.746,7.746,0,0,0,3.423-1.326,44.223,44.223,0,0,0,5.034-4.022,145.292,145.292,0,0,1-1.18,17.043,13.223,13.223,0,0,0,3.768-1.573" transform="translate(327.599 -140.871)" fill="#b28b67"/>
      <path id="Trazado_315" data-name="Trazado 315" d="M257.715,248.591a47.376,47.376,0,0,0-20.562,9.557,17.335,17.335,0,0,0-4.263,4.584,3.577,3.577,0,0,0-.606,2.529,2.9,2.9,0,0,0,2.468,1.991,8.495,8.495,0,0,0,3.323-.385l7.018-1.775c-.253,3.506-.454,8.366-.707,11.872,2.834-1.113,5.525-2.2,8.359-3.312.921-.361,1.142.14,1.87-.529.625-.573,1.865-3.582,2.258-4.333a58.209,58.209,0,0,0,4.657-12.991,11.3,11.3,0,0,0,.471-3.877,4.111,4.111,0,0,0-1.935-3.239,2.56,2.56,0,0,0-3.412.874" transform="translate(329.023 -158.368)" fill="#b28b67"/>
      <path id="Trazado_316" data-name="Trazado 316" d="M258.579,285.127c-3.677-.68-7.155.78-10.568,2.305a32.87,32.87,0,0,0-12.04,8.7,4.957,4.957,0,0,0-1.5,3.68c.261,1.752,2.227,2.826,4,2.733s4.627-1.857,6.142-2.775c-.266,4.454-.684,8.514-.706,12.982a11.979,11.979,0,0,0-.06,2.444c.2.479.989-.14,1.376-.482,5.8-5.114,11.727-10.382,15.352-17.213a13.135,13.135,0,0,0,1.873-6.837c-.151-2.389-1.583-4.823-3.868-5.534" transform="translate(328.247 -171.174)" fill="#b28b67"/>
      <rect id="Rectángulo_72" data-name="Rectángulo 72" width="23.752" height="3.93" rx="1.965" transform="translate(522.454 36.295) rotate(3.142)" fill="#d1d2ff"/>
      <ellipse id="Elipse_39" data-name="Elipse 39" cx="5.216" cy="5.216" rx="5.216" ry="5.216" transform="translate(519.44 178.342)" fill="#d1d2ff"/>
      <g id="Grupo_451" data-name="Grupo 451" transform="matrix(0.998, 0.07, -0.07, 0.998, 499.708, 98.176)">
        <path id="Trazado_7" data-name="Trazado 7" d="M10.4,4.883c-1.008.954-1.754,1.593-2.42,2.307-.969,1.038-1.88.9-2.794-.027C4.525,6.492,3.8,5.972,2.858,5.191c0,.521,0,1.042,0,1.563-.011,1.653.013,3.308-.053,4.959-.035.855-.138,1.347-1.44,1.341C.115,13.048.09,12.205.075,11.732-.034,8.24-.01,4.743.056,1.25A1.35,1.35,0,0,1,.884.125,1.354,1.354,0,0,1,2.524.51C3.859,1.772,5.358,3.16,6.738,4.628,8.155,3.245,9.051,1.973,10.369.867,10.906.416,11.906-.139,12.589.3c.626.4.6,1.078.616,1.742.079,3.068.01,6.14.037,9.21.009,1.036-.243,1.842-1.421,1.833s-1.419-.9-1.421-1.88C10.4,9.231,10.4,7.256,10.4,4.883Z" transform="translate(15.627 0.144)" fill="#656cbc"/>
        <path id="Trazado_8" data-name="Trazado 8" d="M.01,4.9c0-1.132.014-2.265,0-3.4A1.3,1.3,0,0,1,1.455.049c1.121.016,1.258.921,1.3,1.461.16,2.111.017,4.244.115,6.362A2.416,2.416,0,0,0,5.181,10.3,2.5,2.5,0,0,0,7.872,8.47a4.822,4.822,0,0,0,.107-1.261c.01-1.793,0-3.586,0-5.379,0-1,.3-1.844,1.474-1.83,1.208.015,1.379.9,1.371,1.888-.015,1.982.016,3.964-.013,5.945a5.268,5.268,0,0,1-5.451,5.29A5.307,5.307,0,0,1,.012,7.869C-.013,6.879.008,5.888.01,4.9Z" transform="translate(31.309 0.107)" fill="#656cbc"/>
        <path id="Trazado_9" data-name="Trazado 9" d="M6.5,8.5C7.876,5.848,9.09,3.414,10.4,1.036A1.638,1.638,0,0,1,11.772.088,1.643,1.643,0,0,1,13.12.922a2.1,2.1,0,0,1-.26,1.4q-2.4,4.89-4.888,9.738c-.785,1.523-2.1,1.567-2.868.057C3.428,8.846,1.849,5.522.228,2.22A1.354,1.354,0,0,1,.824.188c.909-.462,1.543-.027,1.955.8C3.992,3.414,5.191,5.849,6.5,8.5Z" transform="translate(44.579 0)" fill="#656cbc"/>
        <path id="Trazado_10" data-name="Trazado 10" d="M12.841,8.427a6.126,6.126,0,0,0-1.935-6.649A6.112,6.112,0,0,0,3.835.672C1.567,1.806.433,3.224.077,5.255a6.667,6.667,0,0,0,8.839,7.438,1.868,1.868,0,0,1,2.154.131,1.261,1.261,0,0,0,1.607-.143,1.042,1.042,0,0,0,.3-1.311C11.919,10.376,12.556,9.439,12.841,8.427ZM10.1,7.96C9.013,7.433,8.2,5.7,6.928,6.951c-1.3,1.278.343,2.1.984,3-1.357.871-2.98.53-4.264-.839a3.694,3.694,0,0,1-.135-4.793,3.8,3.8,0,0,1,4.8-1.114A3.61,3.61,0,0,1,10.1,7.96Z" transform="translate(0 0.113)" fill="#ffbf60"/>
        <g id="Grupo_8" data-name="Grupo 8" transform="translate(56.991 9.261)">
          <g id="Grupo_6" data-name="Grupo 6">
            <path id="Trazado_11" data-name="Trazado 11" d="M1.984,3.969A1.984,1.984,0,1,1,3.969,1.985,1.987,1.987,0,0,1,1.984,3.969Zm0-3.685a1.7,1.7,0,1,0,1.7,1.7A1.7,1.7,0,0,0,1.984.284Z" fill="#656cbc"/>
          </g>
          <g id="Grupo_7" data-name="Grupo 7" transform="translate(1.276 1.115)">
            <path id="Trazado_12" data-name="Trazado 12" d="M1.107.045A.43.43,0,0,1,1.27.166a.54.54,0,0,1,.087.146A.487.487,0,0,1,1.389.5a.517.517,0,0,1-.063.244.35.35,0,0,1-.206.17.324.324,0,0,1,.17.138.572.572,0,0,1,.05.272v.117a.863.863,0,0,0,.01.162.146.146,0,0,0,.067.1V1.74h-.4C1.005,1.7,1,1.67.992,1.647A.875.875,0,0,1,.977,1.5l0-.162a.329.329,0,0,0-.058-.222A.294.294,0,0,0,.71,1.057H.355V1.74H0V0H.832A.759.759,0,0,1,1.107.045ZM.355.3V.769H.746A.421.421,0,0,0,.921.741a.2.2,0,0,0,.1-.2.22.22,0,0,0-.1-.212A.362.362,0,0,0,.757.3Z" fill="#656cbc"/>
          </g>
        </g>
      </g>
    </g>
  </g>
</svg>
